hdl/verilog/shift_reg/sim_postroute/waveform.vcd
$date
   Thu Oct 24 18:00:20 2024
$end

$version
  2023.2.2
  $dumpfile ("waveform.vcd") 
$end

$timescale
  1ps
$end

$scope module tb_shift_reg $end
$var reg 32 ! num_errors [31:0] $end
$var reg 1 " tb_clk $end
$var reg 1 # tb_rst $end
$var reg 1 $ tb_din $end
$var reg 32 % tb_word [31:0] $end
$var wire 1 & tb_dout $end
$var reg 1 ' tb_err $end
$scope module dut $end
$var wire 1 ( i_clk $end
$var wire 1 ) i_clk_IBUF $end
$var wire 1 * i_din $end
$var wire 1 + i_din_IBUF $end
$var wire 1 , i_rst $end
$var wire 1 - i_rst_IBUF $end
$var wire 1 & o_dout $end
$var wire 1 . o_dout_OBUF $end
$scope module shift_reg_0 $end
$var wire 1 + D [0:0] $end
$var wire 1 . Q [0:0] $end
$var wire 1 - SR [0:0] $end
$var wire 1 ) i_clk_IBUF $end
$var wire 31 / p_0_in [30:0] $end
$upscope $end
$upscope $end
$scope task assert_and_report $end
$var reg 1 0 expected $end
$var reg 1 1 actual $end
$upscope $end
$scope task test_word $end
$var reg 32 2 word [31:0] $end
$scope begin Block39_97 $end
$var reg 32 3 i [31:0] $end
$upscope $end
$scope begin Block44_98 $end
$var reg 32 4 i [31:0] $end
$upscope $end
$upscope $end
$upscope $end
$enddefinitions $end

#0
$dumpvars
b0 !
1"
0#
0$
b10000110100001000000011000000100 %
x&
x'
1(
1)
0*
0+
0,
0-
x.
bx /
x0
x1
b10000110100001000000011000000100 2
b0 3
b0 4
$end

#100
0.
b0 /

#2166
0&

#50000
0"
0(
0)

#100000
1"
1(
1)
b1 3

#150000
0"
0(
0)

#200000
1"
1$
1(
1)
1*
1+
b10 3

#250000
0"
0(
0)

#300000
1"
0$
1(
1)
0*
0+
b11 3

#302399
b1 /

#350000
0"
0(
0)

#400000
1"
1(
1)
b100 3

#402399
b0 /

#402514
b10 /

#450000
0"
0(
0)

#500000
1"
1(
1)
b101 3

#501899
b110 /

#502514
b100 /

#550000
0"
0(
0)

#600000
1"
1(
1)
b110 3

#601899
b0 /

#602528
b1000 /

#650000
0"
0(
0)

#700000
1"
1(
1)
b111 3

#702528
b0 /

#702549
b10000 /

#750000
0"
0(
0)

#800000
1"
1(
1)
b1000 3

#802544
b110000 /

#802549
b100000 /

#850000
0"
0(
0)

#900000
1"
1$
1(
1)
1*
1+
b1001 3

#902544
b0 /

#902752
b1000000 /

#950000
0"
0(
0)

#1000000
1"
1(
1)
b1010 3

#1002399
b1000001 /

#1002412
b11000001 /

#1002752
b10000001 /

#1050000
0"
0(
0)

#1100000
1"
0$
1(
1)
0*
0+
b1011 3

#1102412
b1 /

#1102514
b11 /

#1102686
b100000011 /

#1150000
0"
0(
0)

#1200000
1"
1(
1)
b1100 3

#1201899
b100000111 /

#1202399
b100000110 /

#1202534
b1100000110 /

#1202686
b1000000110 /

#1250000
0"
0(
0)

#1300000
1"
1(
1)
b1101 3

#1302514
b1000000100 /

#1302528
b1000001100 /

#1302534
b1100 /

#1302561
b10000001100 /

#1350000
0"
0(
0)

#1400000
1"
1(
1)
b1110 3

#1401899
b10000001000 /

#1401975
b110000001000 /

#1402549
b110000011000 /

#1402561
b100000011000 /

#1450000
0"
0(
0)

#1500000
1"
1(
1)
b1111 3

#1501975
b11000 /

#1502528
b10000 /

#1502544
b110000 /

#1502702
b1000000110000 /

#1550000
0"
0(
0)

#1600000
1"
1(
1)
b10000 3

#1601932
b11000000110000 /

#1602549
b11000000100000 /

#1602702
b10000000100000 /

#1602752
b10000001100000 /

#1650000
0"
0(
0)

#1700000
1"
1(
1)
b10001 3

#1701932
b1100000 /

#1702412
b11100000 /

#1702537
b100000011100000 /

#1702544
b100000011000000 /

#1750000
0"
0(
0)

#1800000
1"
1$
1(
1)
1*
1+
b10010 3

#1802074
b1100000011000000 /

#1802537
b1000000011000000 /

#1802686
b1000000111000000 /

#1802752
b1000000110000000 /

#1850000
0"
0(
0)

#1900000
1"
0$
1(
1)
0*
0+
b10011 3

#1902074
b110000000 /

#1902399
b110000001 /

#1902412
b100000001 /

#1902534
b1100000001 /

#1902562
b10000001100000001 /

#1950000
0"
0(
0)

#2000000
1"
1(
1)
b10100 3

#2002399
b10000001100000000 /

#2002514
b10000001100000010 /

#2002561
b10000011100000010 /

#2002562
b11100000010 /

#2002673
b100000011100000010 /

#2002686
b100000011000000010 /

#2050000
0"
0(
0)

#2100000
1"
1(
1)
b10101 3

#2101899
b100000011000000110 /

#2101929
b1100000011000000110 /

#2101975
b1100000111000000110 /

#2102514
b1100000111000000100 /

#2102534
b1100000110000000100 /

#2102673
b1000000110000000100 /

#2150000
0"
0(
0)

#2200000
1"
1(
1)
b10110 3

#2201899
b1000000110000000000 /

#2201929
b110000000000 /

#2202528
b110000001000 /

#2202561
b100000001000 /

#2202628
b10000000100000001000 /

#2202702
b10000001100000001000 /

#2250000
0"
0(
0)

#2300000
1"
1$
1(
1)
1*
1+
b10111 3

#2301932
b10000011100000001000 /

#2301975
b10000011000000001000 /

#2302528
b10000011000000000000 /

#2302549
b10000011000000010000 /

#2302583
b110000011000000010000 /

#2302628
b100000011000000010000 /

#2350000
0"
0(
0)

#2400000
1"
0$
1(
1)
0*
0+
b11000 3

#2402116
b1100000011000000010000 /

#2402399
b1100000011000000010001 /

#2402537
b1100000111000000010001 /

#2402544
b1100000111000000110001 /

#2402549
b1100000111000000100001 /

#2402583
b1000000111000000100001 /

#2402702
b1000000110000000100001 /

#2450000
0"
0(
0)

#2500000
1"
1$
1(
1)
1*
1+
b11001 3

#2501788
b11000000110000000100001 /

#2501932
b11000000100000000100001 /

#2502074
b11000001100000000100001 /

#2502116
b10000001100000000100001 /

#2502399
b10000001100000000100000 /

#2502514
b10000001100000000100010 /

#2502544
b10000001100000000000010 /

#2502752
b10000001100000001000010 /

#2550000
0"
0(
0)

#2600000
1"
1(
1)
b11010 3

#2601788
b1100000001000010 /

#2601899
b1100000001000110 /

#2601933
b100000001100000001000110 /

#2602399
b100000001100000001000111 /

#2602412
b100000001100000011000111 /

#2602514
b100000001100000011000101 /

#2602537
b100000001000000011000101 /

#2602562
b100000011000000011000101 /

#2602752
b100000011000000010000101 /

#2650000
0"
0(
0)

#2700000
1"
0$
1(
1)
0*
0+
b11011 3

#2701899
b100000011000000010000001 /

#2701933
b11000000010000001 /

#2702074
b10000000010000001 /

#2702412
b10000000000000001 /

#2702514
b10000000000000011 /

#2702528
b10000000000001011 /

#2702551
b1000000010000000000001011 /

#2702673
b1000000110000000000001011 /

#2702686
b1000000110000000100001011 /

#2750000
0"
0(
0)

#2800000
1"
1(
1)
b11100 3

#2801899
b1000000110000000100001111 /

#2801929
b1000001110000000100001111 /

#2801974
b11000001110000000100001111 /

#2802399
b11000001110000000100001110 /

#2802528
b11000001110000000100000110 /

#2802534
b11000001110000001100000110 /

#2802549
b11000001110000001100010110 /

#2802551
b10000001110000001100010110 /

#2802562
b10000001100000001100010110 /

#2802686
b10000001100000001000010110 /

#2850000
0"
0(
0)

#2900000
1"
1(
1)
b11101 3

#2901974
b1100000001000010110 /

#2902514
b1100000001000010100 /

#2902528
b1100000001000011100 /

#2902534
b1100000000000011100 /

#2902536
b100000001100000000000011100 /

#2902544
b100000001100000000000111100 /

#2902549
b100000001100000000000101100 /

#2902561
b100000001100000010000101100 /

#2902628
b100000011100000010000101100 /

#2902673
b100000011000000010000101100 /

#2950000
0"
0(
0)

#3000000
1"
1(
1)
b11110 3

#3001899
b100000011000000010000101000 /

#3001929
b100000010000000010000101000 /

#3001975
b100000010000000110000101000 /

#3002536
b10000000110000101000 /

#3002544
b10000000110000001000 /

#3002549
b10000000110000011000 /

#3002561
b10000000100000011000 /

#3002583
b110000000100000011000 /

#3002676
b1000000110000000100000011000 /

#3002752
b1000000110000000100001011000 /

#3050000
0"
0(
0)

#3100000
1"
1$
1(
1)
1*
1+
b11111 3

#3101975
b1000000110000000000001011000 /

#3102116
b1000001110000000000001011000 /

#3102412
b1000001110000000000011011000 /

#3102528
b1000001110000000000011010000 /

#3102537
b11000001110000000000011010000 /

#3102544
b11000001110000000000011110000 /

#3102628
b11000001100000000000011110000 /

#3102676
b10000001100000000000011110000 /

#3102702
b10000001100000001000011110000 /

#3102752
b10000001100000001000010110000 /

#3150000
0"
0(
0)

#3200000
1"
1(
1)
b100000 3

#3201788
b10000011100000001000010110000 /

#3201932
b10000011100000011000010110000 /

#3202399
b10000011100000011000010110001 /

#3202412
b10000011100000011000000110001 /

#3202537
b11100000011000000110001 /

#3202549
b11100000011000000100001 /

#3202558
b100000011100000011000000100001 /

#3202583
b100000011000000011000000100001 /

#3202686
b100000011000000011000100100001 /

#3202702
b100000011000000010000100100001 /

#3202752
b100000011000000010000101100001 /

#3250000
0"
0(
0)

#3300000
1"
0'
1(
1)
00
01
b1 4

#3301932
b100000011000000000000101100001 /

#3301933
b100000111000000000000101100001 /

#3302116
b100000110000000000000101100001 /

#3302412
b100000110000000000000111100001 /

#3302514
b100000110000000000000111100011 /

#3302534
b100000110000000000001111100011 /

#3302537
b100000110000000100001111100011 /

#3302544
b100000110000000100001111000011 /

#3302558
b110000000100001111000011 /

#3302598
b1000000110000000100001111000011 /

#3302686
b1000000110000000100001011000011 /

#3350000
0"
0(
0)

#3400000
1"
1(
1)
b10 4

#3401755
1.

#3401788
b1000000100000000100001011000011 /

#3401899
b1000000100000000100001011000111 /

#3402074
b1000000100000001100001011000111 /

#3402534
b1000000100000001100000011000111 /

#3402537
b1000000100000001000000011000111 /

#3402551
b1000001100000001000000011000111 /

#3402561
b1000001100000001000010011000111 /

#3402598
b1100000001000010011000111 /

#3402686
b1100000001000010111000111 /

#3402752
b1100000001000010110000111 /

#3403821
1&

#3450000
0"
0(
0)

#3500000
1"
1(
1)
10
11
b11 4

#3501755
0.

#3501933
b1000000001000010110000111 /

#3501974
b11000000001000010110000111 /

#3501975
b11000000001000110110000111 /

#3502074
b11000000000000110110000111 /

#3502412
b11000000000000110100000111 /

#3502528
b11000000000000110100001111 /

#3502534
b11000000000000111100001111 /

#3502561
b11000000000000101100001111 /

#3502562
b11000000010000101100001111 /

#3503821
0&

#3550000
0"
0(
0)

#3600000
1"
1(
1)
00
01
b100 4

#3601975
b11000000010000001100001111 /

#3602536
b111000000010000001100001111 /

#3602549
b111000000010000001100011111 /

#3602551
b110000000010000001100011111 /

#3602561
b110000000010000011100011111 /

#3602562
b110000000000000011100011111 /

#3602673
b110000000100000011100011111 /

#3602686
b110000000100000011000011111 /

#3602702
b110000000100001011000011111 /

#3650000
0"
0(
0)

#3700000
1"
1(
1)
b101 4

#3701929
b110000001100001011000011111 /

#3701932
b110000001100011011000011111 /

#3701974
b100000001100011011000011111 /

#3701975
b100000001100011111000011111 /

#3702534
b100000001100011110000011111 /

#3702544
b100000001100011110000111111 /

#3702673
b100000001000011110000111111 /

#3702676
b1100000001000011110000111111 /

#3702702
b1100000001000010110000111111 /

#3750000
0"
0(
0)

#3800000
1"
1(
1)
b110 4

#3801929
b1100000000000010110000111111 /

#3801932
b1100000000000000110000111111 /

#3802536
b1000000000000000110000111111 /

#3802537
b11000000000000100110000111111 /

#3802561
b11000000000000100100000111111 /

#3802628
b11000000010000100100000111111 /

#3802702
b11000000010000101100000111111 /

#3802752
b11000000010000101100001111111 /

#3850000
0"
0(
0)

#3900000
1"
1(
1)
b111 4

#3901932
b11000000010000111100001111111 /

#3901975
b11000000010000111000001111111 /

#3902074
b11000000010001111000001111111 /

#3902412
b11000000010001111000011111111 /

#3902537
b11000000010001011000011111111 /

#3902558
b111000000010001011000011111111 /

#3902583
b111000000110001011000011111111 /

#3902628
b111000000100001011000011111111 /

#3902676
b110000000100001011000011111111 /

#3950000
0"
0(
0)

#4000000
1"
1(
1)
b1000 4

#4002074
b110000000100000011000011111111 /

#4002116
b110000001100000011000011111111 /

#4002537
b100000001100000111000011111111 /

#4002562
b100000001100010111000011111111 /

#4002583
b100000001000010111000011111111 /

#4002598
b1100000001000010111000011111111 /

#4002686
b1100000001000010111000111111111 /

#4002702
b1100000001000010110000111111111 /

#4050000
0"
0(
0)

#4100000
1"
1(
1)
b1001 4

#4101755
1.

#4101788
b1100000011000010110000111111111 /

#4101932
b1100000011000010100000111111111 /

#4102074
b1100000011000011100000111111111 /

#4102116
b1100000010000011100000111111111 /

#4102534
b1100000010000011100001111111111 /

#4102558
b1000000010000011100001111111111 /

#4102562
b1000000010000001100001111111111 /

#4102673
b1000000010000101100001111111111 /

#4103821
1&

#4150000
0"
0(
0)

#4200000
1"
1(
1)
10
11
b1010 4

#4201788
b1000000000000101100001111111111 /

#4201929
b1000000000001101100001111111111 /

#4201933
b1000000100001101100001111111111 /

#4202537
b1000000100001101000001111111111 /

#4202561
b1000000100001101000011111111111 /

#4202562
b1000000100001111000011111111111 /

#4202598
b100001111000011111111111 /

#4202673
b100001011000011111111111 /

#4250000
0"
0(
0)

#4300000
1"
1(
1)
b1011 4

#4301755
0.

#4301929
b100000011000011111111111 /

#4301933
b11000011111111111 /

#4301975
b11000111111111111 /

#4302074
b10000111111111111 /

#4302551
b1000000010000111111111111 /

#4302628
b1000010010000111111111111 /

#4302673
b1000010110000111111111111 /

#4303821
0&

#4350000
0"
0(
0)

#4400000
1"
1(
1)
00
01
b1100 4

#4401929
b1000011110000111111111111 /

#4401974
b11000011110000111111111111 /

#4402551
b10000011110000111111111111 /

#4402562
b10000011100000111111111111 /

#4402583
b10000111100000111111111111 /

#4402628
b10000101100000111111111111 /

#4402702
b10000101100001111111111111 /

#4450000
0"
0(
0)

#4500000
1"
1(
1)
b1101 4

#4501932
b10000101100011111111111111 /

#4501974
b101100011111111111111 /

#4502116
b1101100011111111111111 /

#4502536
b100001101100011111111111111 /

#4502583
b100001001100011111111111111 /

#4502628
b100001011100011111111111111 /

#4502673
b100001011000011111111111111 /

#4550000
0"
0(
0)

#4600000
1"
1(
1)
b1110 4

#4601788
b100011011000011111111111111 /

#4601929
b100011010000011111111111111 /

#4602116
b100010010000011111111111111 /

#4602536
b10010000011111111111111 /

#4602537
b10010000111111111111111 /

#4602583
b10110000111111111111111 /

#4602676
b1000010110000111111111111111 /

#4650000
0"
0(
0)

#4700000
1"
1(
1)
b1111 4

#4701788
b1000000110000111111111111111 /

#4701933
b1000100110000111111111111111 /

#4702074
b1000100110001111111111111111 /

#4702116
b1000101110001111111111111111 /

#4702537
b11000101110001111111111111111 /

#4702628
b11000101100001111111111111111 /

#4702676
b10000101100001111111111111111 /

#4750000
0"
0(
0)

#4800000
1"
1(
1)
b10000 4

#4801788
b10000111100001111111111111111 /

#4801933
b10000011100001111111111111111 /

#4802537
b11100001111111111111111 /

#4802551
b1011100001111111111111111 /

#4802558
b100001011100001111111111111111 /

#4802562
b100001011100011111111111111111 /

#4802583
b100001011000011111111111111111 /

#4850000
0"
0(
0)

#4900000
1"
1(
1)
b10001 4

#4901933
b100001111000011111111111111111 /

#4901974
b100011111000011111111111111111 /

#4902116
b100011110000011111111111111111 /

#4902551
b100010110000011111111111111111 /

#4902558
b10110000011111111111111111 /

#4902598
b1000010110000011111111111111111 /

#4902673
b1000010110000111111111111111111 /

#4950000
0"
0(
0)

#5000000
1"
1(
1)
b10010 4

#5001755
1.

#5001788
b1000010100000111111111111111111 /

#5001929
b1000010100001111111111111111111 /

#5001974
b1000000100001111111111111111111 /

#5002536
b1000100100001111111111111111111 /

#5002551
b1000101100001111111111111111111 /

#5002598
b101100001111111111111111111 /

#5003821
1&

#5050000
0"
0(
0)

#5100000
1"
1(
1)
10
11
b10011 4

#5101755
0.

#5101933
b101000001111111111111111111 /

#5101974
b111000001111111111111111111 /

#5102536
b11000001111111111111111111 /

#5102628
b11000011111111111111111111 /

#5102676
b1011000011111111111111111111 /

#5103821
0&

#5150000
0"
0(
0)

#5200000
1"
1(
1)
00
01
b10100 4

#5202536
b1111000011111111111111111111 /

#5202537
b11111000011111111111111111111 /

#5202551
b11110000011111111111111111111 /

#5202583
b11110000111111111111111111111 /

#5202676
b10110000111111111111111111111 /

#5250000
0"
0(
0)

#5300000
1"
1(
1)
b10101 4

#5301974
b10100000111111111111111111111 /

#5302116
b10100001111111111111111111111 /

#5302537
b100001111111111111111111111 /

#5302558
b100100001111111111111111111111 /

#5302676
b101100001111111111111111111111 /

#5350000
0"
0(
0)

#5400000
1"
1(
1)
b10110 4

#5401788
b101100011111111111111111111111 /

#5402536
b101000011111111111111111111111 /

#5402537
b111000011111111111111111111111 /

#5402558
b11000011111111111111111111111 /

#5402598
b1011000011111111111111111111111 /

#5450000
0"
0(
0)

#5500000
1"
1(
1)
b10111 4

#5501755
1.

#5501933
b1011000111111111111111111111111 /

#5502558
b1111000111111111111111111111111 /

#5502598
b111000111111111111111111111111 /

#5502676
b110000111111111111111111111111 /

#5503821
1&

#5550000
0"
0(
0)

#5600000
1"
1(
1)
10
11
b11000 4

#5601755
0.

#5602537
b100000111111111111111111111111 /

#5602551
b100001111111111111111111111111 /

#5602598
b1100001111111111111111111111111 /

#5603821
0&

#5650000
0"
0(
0)

#5700000
1"
1(
1)
00
01
b11001 4

#5701755
1.

#5701974
b1100011111111111111111111111111 /

#5702558
b1000011111111111111111111111111 /

#5703821
1&

#5750000
0"
0(
0)

#5800000
1"
1(
1)
10
11
b11010 4

#5802536
b1000111111111111111111111111111 /

#5802598
b111111111111111111111111111 /

#5850000
0"
0(
0)

#5900000
1"
1(
1)
b11011 4

#5901755
0.

#5902676
b1111111111111111111111111111 /

#5903821
0&

#5950000
0"
0(
0)

#6000000
1"
1(
1)
00
01
b11100 4

#6002537
b11111111111111111111111111111 /

#6050000
0"
0(
0)

#6100000
1"
1(
1)
b11101 4

#6102558
b111111111111111111111111111111 /

#6150000
0"
0(
0)

#6200000
1"
1(
1)
b11110 4

#6202598
b1111111111111111111111111111111 /

#6250000
0"
0(
0)

#6300000
1"
1(
1)
b11111 4

#6301755
1.

#6303821
1&

#6350000
0"
0(
0)

#6400000
1"
1#
1(
1)
1,
1-
10
11
b100000 4

#6450000
0"
0(
0)

#6500000
1"
0#
0$
b1110001111111101100111001111010 %
1(
1)
0*
0+
0,
0-
b1110001111111101100111001111010 2
b0 3

#6501755
0.

#6501788
b1111111101111111111111111111111 /

#6501899
b1111111101111111111111111111011 /

#6501929
b1111111101110111111111111111011 /

#6501932
b1111111101110111101111111111011 /

#6501933
b1111111001110111101111111111011 /

#6501974
b1111101001110111101111111111011 /

#6501975
b1111101001110111101011111111011 /

#6502074
b1111101001110110101011111111011 /

#6502116
b1111101000110110101011111111011 /

#6502399
b1111101000110110101011111111010 /

#6502412
b1111101000110110101011101111010 /

#6502514
b1111101000110110101011101111000 /

#6502528
b1111101000110110101011101110000 /

#6502534
b1111101000110110101010101110000 /

#6502536
b1111001000110110101010101110000 /

#6502537
b1101001000110110001010101110000 /

#6502544
b1101001000110110001010101010000 /

#6502549
b1101001000110110001010101000000 /

#6502551
b1101000000110110001010101000000 /

#6502558
b1001000000110110001010101000000 /

#6502561
b1001000000110110001000101000000 /

#6502562
b1001000000110100001000101000000 /

#6502583
b1001000000010100001000101000000 /

#6502598
b1000000010100001000101000000 /

#6502628
b1000000000100001000101000000 /

#6502673
b1000000000000001000101000000 /

#6502676
b1000101000000 /

#6502686
b1000001000000 /

#6502702
b1000000 /

#6502752
b0 /

#6503821
0&

#6550000
0"
0(
0)

#6600000
1"
1$
1(
1)
1*
1+
b1 3

#6650000
0"
0(
0)

#6700000
1"
0$
1(
1)
0*
0+
b10 3

#6702399
b1 /

#6750000
0"
0(
0)

#6800000
1"
1$
1(
1)
1*
1+
b11 3

#6802399
b0 /

#6802514
b10 /

#6850000
0"
0(
0)

#6900000
1"
1(
1)
b100 3

#6901899
b110 /

#6902399
b111 /

#6902514
b101 /

#6950000
0"
0(
0)

#7000000
1"
1(
1)
b101 3

#7001899
b1 /

#7002514
b11 /

#7002528
b1011 /

#7050000
0"
0(
0)

#7100000
1"
1(
1)
b110 3

#7101899
b1111 /

#7102528
b111 /

#7102549
b10111 /

#7150000
0"
0(
0)

#7200000
1"
0$
1(
1)
0*
0+
b111 3

#7202528
b11111 /

#7202544
b111111 /

#7202549
b101111 /

#7250000
0"
0(
0)

#7300000
1"
1(
1)
b1000 3

#7302399
b101110 /

#7302544
b1110 /

#7302549
b11110 /

#7302752
b1011110 /

#7350000
0"
0(
0)

#7400000
1"
1$
1(
1)
1*
1+
b1001 3

#7402412
b11011110 /

#7402514
b11011100 /

#7402544
b11111100 /

#7402752
b10111100 /

#7450000
0"
0(
0)

#7500000
1"
1(
1)
b1010 3

#7501899
b10111000 /

#7502399
b10111001 /

#7502412
b111001 /

#7502686
b100111001 /

#7502752
b101111001 /

#7550000
0"
0(
0)

#7600000
1"
1(
1)
b1011 3

#7602412
b111111001 /

#7602514
b111111011 /

#7602528
b111110011 /

#7602534
b1111110011 /

#7602686
b1011110011 /

#7650000
0"
0(
0)

#7700000
1"
0$
1(
1)
0*
0+
b1100 3

#7701899
b1011110111 /

#7702534
b11110111 /

#7702549
b11100111 /

#7702561
b10011100111 /

#7702686
b10111100111 /

#7750000
0"
0(
0)

#7800000
1"
1(
1)
b1101 3

#7801975
b110111100111 /

#7802399
b110111100110 /

#7802528
b110111101110 /

#7802534
b111111101110 /

#7802544
b111111001110 /

#7802561
b101111001110 /

#7850000
0"
0(
0)

#7900000
1"
1$
1(
1)
1*
1+
b1110 3

#7901975
b1111001110 /

#7902514
b1111001100 /

#7902549
b1111011100 /

#7902561
b11111011100 /

#7902702
b1011111011100 /

#7902752
b1011110011100 /

#7950000
0"
0(
0)

#8000000
1"
1(
1)
b1111 3

#8001899
b1011110011000 /

#8001932
b11011110011000 /

#8001975
b11111110011000 /

#8002399
b11111110011001 /

#8002412
b11111100011001 /

#8002544
b11111100111001 /

#8002702
b10111100111001 /

#8050000
0"
0(
0)

#8100000
1"
0$
1(
1)
0*
0+
b10000 3

#8101932
b111100111001 /

#8102514
b111100111011 /

#8102528
b111100110011 /

#8102537
b100111100110011 /

#8102686
b100111000110011 /

#8102702
b101111000110011 /

#8102752
b101111001110011 /

#8150000
0"
0(
0)

#8200000
1"
1$
1(
1)
1*
1+
b10001 3

#8201899
b101111001110111 /

#8201932
b111111001110111 /

#8202074
b1111111001110111 /

#8202399
b1111111001110110 /

#8202412
b1111111011110110 /

#8202534
b1111110011110110 /

#8202537
b1011110011110110 /

#8202549
b1011110011100110 /

#8250000
0"
0(
0)

#8300000
1"
1(
1)
b10010 3

#8302074
b11110011100110 /

#8302399
b11110011100111 /

#8302514
b11110011100101 /

#8302528
b11110011101101 /

#8302537
b111110011101101 /

#8302544
b111110011001101 /

#8302561
b111100011001101 /

#8302562
b10111100011001101 /

#8302686
b10111100111001101 /

#8350000
0"
0(
0)

#8400000
1"
1(
1)
b10011 3

#8401899
b10111100111001001 /

#8401975
b10111000111001001 /

#8402074
b11111000111001001 /

#8402514
b11111000111001011 /

#8402534
b11111001111001011 /

#8402549
b11111001111011011 /

#8402562
b1111001111011011 /

#8402673
b101111001111011011 /

#8402752
b101111001110011011 /

#8450000
0"
0(
0)

#8500000
1"
1(
1)
b10100 3

#8501899
b101111001110011111 /

#8501929
b1101111001110011111 /

#8502412
b1101111001100011111 /

#8502528
b1101111001100010111 /

#8502544
b1101111001100110111 /

#8502561
b1101111011100110111 /

#8502562
b1111111011100110111 /

#8502673
b1011111011100110111 /

#8502702
b1011110011100110111 /

#8550000
0"
0(
0)

#8600000
1"
1(
1)
b10101 3

#8601929
b11110011100110111 /

#8601932
b11100011100110111 /

#8601975
b11100111100110111 /

#8602528
b11100111100111111 /

#8602549
b11100111100101111 /

#8602628
b10011100111100101111 /

#8602673
b10111100111100101111 /

#8602686
b10111100111000101111 /

#8602752
b10111100111001101111 /

#8650000
0"
0(
0)

#8700000
1"
1(
1)
b10110 3

#8701929
b11111100111001101111 /

#8702412
b11111100111011101111 /

#8702534
b11111100110011101111 /

#8702537
b11111000110011101111 /

#8702544
b11111000110011001111 /

#8702549
b11111000110011011111 /

#8702583
b111111000110011011111 /

#8702628
b101111000110011011111 /

#8702702
b101111001110011011111 /

#8750000
0"
0(
0)

#8800000
1"
1(
1)
b10111 3

#8801932
b101111011110011011111 /

#8802074
b101110011110011011111 /

#8802116
b1101110011110011011111 /

#8802544
b1101110011110011111111 /

#8802561
b1101110011100011111111 /

#8802583
b1001110011100011111111 /

#8802628
b1011110011100011111111 /

#8802686
b1011110011100111111111 /

#8802752
b1011110011100110111111 /

#8850000
0"
0(
0)

#8900000
1"
1(
1)
b11000 3

#8901788
b11011110011100110111111 /

#8901975
b11011110011000110111111 /

#8902116
b10011110011000110111111 /

#8902412
b10011110011000100111111 /

#8902534
b10011110011001100111111 /

#8902537
b10011110111001100111111 /

#8902562
b10011100111001100111111 /

#8902583
b10111100111001100111111 /

#8902752
b10111100111001101111111 /

#8950000
0"
0(
0)

#9000000
1"
0$
1(
1)
0*
0+
b11001 3

#9001788
b111100111001101111111 /

#9001933
b100111100111001101111111 /

#9002074
b100111101111001101111111 /

#9002116
b101111101111001101111111 /

#9002412
b101111101111001111111111 /

#9002561
b101111101111011111111111 /

#9002673
b101111001111011111111111 /

#9002686
b101111001111011011111111 /

#9002702
b101111001110011011111111 /

#9050000
0"
0(
0)

#9100000
1"
1(
1)
b11010 3

#9101788
b111111001110011011111111 /

#9101929
b111110001110011011111111 /

#9101932
b111110001100011011111111 /

#9101933
b11110001100011011111111 /

#9101975
b11110001100111011111111 /

#9102399
b11110001100111011111110 /

#9102534
b11110001100110011111110 /

#9102551
b1011110001100110011111110 /

#9102562
b1011110011100110011111110 /

#9102686
b1011110011100110111111110 /

#9150000
0"
0(
0)

#9200000
1"
1(
1)
b11011 3

#9201933
b1111110011100110111111110 /

#9201974
b11111110011100110111111110 /

#9202514
b11111110011100110111111100 /

#9202534
b11111110011100111111111100 /

#9202537
b11111110011000111111111100 /

#9202551
b10111110011000111111111100 /

#9202561
b10111110011000101111111100 /

#9202628
b10111100011000101111111100 /

#9202673
b10111100111000101111111100 /

#9202702
b10111100111001101111111100 /

#9250000
0"
0(
0)

#9300000
1"
1$
1(
1)
1*
1+
b11100 3

#9301899
b10111100111001101111111000 /

#9301929
b10111101111001101111111000 /

#9301932
b10111101111011101111111000 /

#9301974
b111101111011101111111000 /

#9301975
b111101111011001111111000 /

#9302074
b111101110011001111111000 /

#9302536
b100111101110011001111111000 /

#9302551
b101111101110011001111111000 /

#9302561
b101111101110011011111111000 /

#9302583
b101111001110011011111111000 /

#9350000
0"
0(
0)

#9400000
1"
1(
1)
b11101 3

#9401974
b111111001110011011111111000 /

#9401975
b111111001110011111111111000 /

#9402116
b111110001110011111111111000 /

#9402399
b111110001110011111111111001 /

#9402528
b111110001110011111111110001 /

#9402536
b11110001110011111111110001 /

#9402537
b11110001110111111111110001 /

#9402562
b11110001100111111111110001 /

#9402628
b11110011100111111111110001 /

#9402676
b1011110011100111111111110001 /

#9402702
b1011110011100110111111110001 /

#9450000
0"
0(
0)

#9500000
1"
1(
1)
b11110 3

#9501788
b1011100011100110111111110001 /

#9501932
b1011100011100100111111110001 /

#9502074
b1011100011101100111111110001 /

#9502514
b1011100011101100111111110011 /

#9502536
b1111100011101100111111110011 /

#9502537
b11111100011101100111111110011 /

#9502549
b11111100011101100111111100011 /

#9502583
b11111100111101100111111100011 /

#9502673
b11111100111001100111111100011 /

#9502676
b10111100111001100111111100011 /

#9502702
b10111100111001101111111100011 /

#9550000
0"
0(
0)

#9600000
1"
0$
1(
1)
0*
0+
b11111 3

#9601899
b10111100111001101111111100111 /

#9601929
b10111100110001101111111100111 /

#9601932
b10111100110001111111111100111 /

#9601933
b10111000110001111111111100111 /

#9602116
b10111001110001111111111100111 /

#9602537
b111001110001011111111100111 /

#9602544
b111001110001011111111000111 /

#9602558
b100111001110001011111111000111 /

#9602562
b100111001110011011111111000111 /

#9602676
b101111001110011011111111000111 /

#9650000
0"
0(
0)

#9700000
1"
1(
1)
b100000 3
b0 4

#9701788
b101111011110011011111111000111 /

#9702074
b101111011110010011111111000111 /

#9702399
b101111011110010011111111000110 /

#9702528
b101111011110010011111111001110 /

#9702537
b111111011110010111111111001110 /

#9702551
b111110011110010111111111001110 /

#9702558
b11110011110010111111111001110 /

#9702598
b1011110011110010111111111001110 /

#9702628
b1011110011100010111111111001110 /

#9702673
b1011110011100110111111111001110 /

#9702752
b1011110011100110111111110001110 /

#9750000
0"
0(
0)

#9800000
1"
1(
1)
00
01
b1 4

#9801755
1.

#9801929
b1011110011101110111111110001110 /

#9801933
b1011110111101110111111110001110 /

#9801974
b1011100111101110111111110001110 /

#9802074
b1011100111101111111111110001110 /

#9802412
b1011100111101111111111100001110 /

#9802514
b1011100111101111111111100001100 /

#9802549
b1011100111101111111111100011100 /

#9802558
b1111100111101111111111100011100 /

#9802562
b1111100111101101111111100011100 /

#9802583
b1111100111001101111111100011100 /

#9802598
b111100111001101111111100011100 /

#9803821
1&

#9850000
0"
0(
0)

#9900000
1"
1(
1)
10
11
b10 4

#9901755
0.

#9901899
b111100111001101111111100011000 /

#9902116
b111100110001101111111100011000 /

#9902536
b111000110001101111111100011000 /

#9902544
b111000110001101111111100111000 /

#9902551
b111001110001101111111100111000 /

#9902562
b111001110001111111111100111000 /

#9902598
b1111001110001111111111100111000 /

#9902628
b1111001110011111111111100111000 /

#9902673
b1111001110011011111111100111000 /

#9902686
b1111001110011011111111000111000 /

#9903821
0&

#9950000
0"
0(
0)

#10000000
1"
1(
1)
00
01
b11 4

#10001755
1.

#10001788
b1111001100011011111111000111000 /

#10001929
b1111001100010011111111000111000 /

#10001974
b1111011100010011111111000111000 /

#10002528
b1111011100010011111111000110000 /

