outputs/simulation/waveform.vcd
$date
   Sun Oct 20 17:06:34 2024
$end

$version
  2023.2.2
  $dumpfile ("waveform.vcd") 
$end

$timescale
  1ps
$end

$scope module tb_counter $end
$var reg 1 ! tb_clk $end
$var reg 1 " tb_rst $end
$var wire 4 # tb_led [3:0] $end
$scope module dut $end
$var wire 1 $ i_clk $end
$var wire 1 % i_clk_IBUF $end
$var wire 1 & i_rst $end
$var wire 1 ' i_rst_IBUF $end
$var wire 1 ( o_pulse $end
$var wire 4 # ov_led [3:0] $end
$var wire 4 ) ov_led_OBUF [3:0] $end
$scope module CLOCK_ENABLE_GEN $end
$var wire 1 ( E [0:0] $end
$var wire 1 ' SR [0:0] $end
$var wire 1 * \count[0]_i_1__0_n_0  $end
$var wire 1 + \count[0]_i_3_n_0  $end
$var wire 4 , count_reg [3:0] $end
$var wire 1 - \count_reg[0]_i_2_n_1  $end
$var wire 1 . \count_reg[0]_i_2_n_2  $end
$var wire 1 / \count_reg[0]_i_2_n_3  $end
$var wire 1 0 \count_reg[0]_i_2_n_4  $end
$var wire 1 1 \count_reg[0]_i_2_n_5  $end
$var wire 1 2 \count_reg[0]_i_2_n_6  $end
$var wire 1 3 \count_reg[0]_i_2_n_7  $end
$var wire 1 % i_clk_IBUF $end
$var wire 1 4 o_pulse_i_1_n_0 $end
$var wire 1 5 \NLW_count_reg[0]_i_2_CO_UNCONNECTED  [0:0] $end
$upscope $end
$scope module COUNTER $end
$var wire 1 ( E [0:0] $end
$var wire 4 ) Q [3:0] $end
$var wire 1 ' SR [0:0] $end
$var wire 1 % i_clk_IBUF $end
$var wire 4 6 plusOp [3:0] $end
$upscope $end
$upscope $end
$upscope $end
$enddefinitions $end

#0
$dumpvars
0!
1"
bx #
0$
0%
1&
1'
x(
bx )
x*
x+
bx ,
x-
x.
x/
x0
x1
x2
x3
x4
x5
bx 6
$end

#100
0(
b0 )
b0 ,
0-
0.
00
01
05

#2130
bx1 6

#2652
1*

#2853
bx01 6

#3407
04

#3988
bx0x #

#4113
b0x01 6

#4117
b0x0x #

#4377
b0x00 #

#5000
1!
1$
1%

#5123
b0 #

#5159
1+
0/
02
13

#6687
b1 6

#10000
0!
0$
0%

#15000
1!
1$
1%

#20000
0!
0$
0%

#25000
1!
0"
1$
1%
0&
0'

#27652
0*

#30000
0!
0$
0%

#35000
1!
1$
1%

#40000
0!
0$
0%

#45000
1!
1$
1%

#50000
0!
0$
0%

#55000
1!
1$
1%

#60000
0!
0$
0%

#65000
1!
1$
1%

#70000
0!
0$
0%

#75000
1!
1$
1%

#80000
0!
0$
0%

#85000
1!
1$
1%

#90000
0!
0$
0%

#95000
1!
1$
1%

#100000
0!
0$
0%

#105000
1!
1$
1%

#106522
b1 ,

#110000
0!
0$
0%

#111581
0+
1/
12
03

#115000
1!
1$
1%

#116522
b0 ,

#120000
0!
0$
0%

#120237
b10 ,
1.
11
02

#121581
1+
0.
0/
01
12
13

#125000
1!
1$
1%

#126522
b11 ,

#130000
0!
0$
0%

#131581
0+
1.
1/
11
02
03

#135000
1!
1$
1%

#136522
b10 ,

#137295
b110 ,
1-
10
01

#140000
0!
0$
0%

#140237
b100 ,
0-
0.
00
11
12

#141581
1+
0/
02
13

#145000
1!
1$
1%

#146522
b101 ,

#150000
0!
0$
0%

#151581
0+
1/
12
03

#155000
1!
1$
1%

#156522
b100 ,

#160000
0!
0$
0%

#160237
b110 ,
1-
1.
10
01
02

#161581
1+
0-
0.
0/
00
11
12
13

#165000
1!
1$
1%

#166522
b111 ,

#170000
0!
0$
0%

#171581
0+
1-
1.
1/
10
01
02
03

#175000
1!
1$
1%

#176522
b110 ,

#177295
b10 ,
0-
00
11

#179883
b1010 ,
10

#180000
0!
0$
0%

#180237
b1000 ,
0.
01
12

#181581
1+
0/
02
13

#185000
1!
1$
1%

#186522
b1001 ,

#189829
14

#189895
1*

#190000
0!
0$
0%

#191581
0+
1/
12
03

#195000
1!
1$
1%

#196522
b1000 ,

#199603
1(

#199829
04

#199883
b0 ,
00

#199895
0*

#200000
0!
0$
0%

#201581
1+
0/
02
13

#205000
1!
1$
1%

#206522
b1 )
b1 ,

#208552
b0 6

#209275
b10 6

#209603
0(

#210000
0!
0$
0%

#210799
b1 #

#211581
0+
1/
12
03

#215000
1!
1$
1%

#216522
b0 ,

#220000
0!
0$
0%

#220237
b10 ,
1.
11
02

#221581
1+
0.
0/
01
12
13

#225000
1!
1$
1%

#226522
b11 ,

#230000
0!
0$
0%

#231581
0+
1.
1/
11
02
03

#235000
1!
1$
1%

#236522
b10 ,

#237295
b110 ,
1-
10
01

#240000
0!
0$
0%

#240237
b100 ,
0-
0.
00
11
12

#241581
1+
0/
02
13

#245000
1!
1$
1%

#246522
b101 ,

#250000
0!
0$
0%

#251581
0+
1/
12
03

#255000
1!
1$
1%

#256522
b100 ,

#260000
0!
0$
0%

#260237
b110 ,
1-
1.
10
01
02

#261581
1+
0-
0.
0/
00
11
12
13

#265000
1!
1$
1%

#266522
b111 ,

#270000
0!
0$
0%

#271581
0+
1-
1.
1/
10
01
02
03

#275000
1!
1$
1%

#276522
b110 ,

#277295
b10 ,
0-
00
11

#279883
b1010 ,
10

#280000
0!
0$
0%

#280237
b1000 ,
0.
01
12

#281581
1+
0/
02
13

#285000
1!
1$
1%

#286522
b1001 ,

#289829
14

#289895
1*

#290000
0!
0$
0%

#291581
0+
1/
12
03

#295000
1!
1$
1%

#296522
b1000 ,

#299603
1(

#299829
04

#299883
b0 ,
00

#299895
0*

#300000
0!
0$
0%

#301581
1+
0/
02
13

#305000
1!
1$
1%

#306522
b0 )
b1 ,

#308552
b11 6

#309275
b1 6

#309603
0(

#310000
0!
0$
0%

#310237
b10 )

#310799
b0 #

#311581
0+
1/
12
03

#311972
b11 6

#314125
b10 #

#315000
1!
1$
1%

#316522
b0 ,

#320000
0!
0$
0%

#320237
b10 ,
1.
11
02

#321581
1+
0.
0/
01
12
13

#325000
1!
1$
1%

#326522
b11 ,

#330000
0!
0$
0%

#331581
0+
1.
1/
11
02
03

#335000
1!
1$
1%

#336522
b10 ,

#337295
b110 ,
1-
10
01

#340000
0!
0$
0%

#340237
b100 ,
0-
0.
00
11
12

#341581
1+
0/
02
13

#345000
1!
1$
1%

#346522
b101 ,

#350000
0!
0$
0%

#351581
0+
1/
12
03

#355000
1!
1$
1%

#356522
b100 ,

#360000
0!
0$
0%

#360237
b110 ,
1-
1.
10
01
02

#361581
1+
0-
0.
0/
00
11
12
13

#365000
1!
1$
1%

#366522
b111 ,

#370000
0!
0$
0%

#371581
0+
1-
1.
1/
10
01
02
03

#375000
1!
1$
1%

#376522
b110 ,

#377295
b10 ,
0-
00
11

#379883
b1010 ,
10

#380000
0!
0$
0%

#380237
b1000 ,
0.
01
12

#381581
1+
0/
02
13

#385000
1!
1$
1%

#386522
b1001 ,

#389829
14

#389895
1*

#390000
0!
0$
0%

#391581
0+
1/
12
03

#395000
1!
1$
1%

#396522
b1000 ,

#399603
1(

#399829
04

#399883
b0 ,
00

#399895
0*

#400000
0!
0$
0%

#401581
1+
0/
02
13

#405000
1!
1$
1%

#406522
b11 )
b1 ,

#408552
b10 6

#409256
b110 6

#409275
b100 6

#409603
0(

#410000
0!
0$
0%

#410799
b11 #

#411581
0+
1/
12
03

#415000
1!
1$
1%

#416522
b0 ,

#420000
0!
0$
0%

#420237
b10 ,
1.
11
02

#421581
1+
0.
0/
01
12
13

#425000
1!
1$
1%

#426522
b11 ,

#430000
0!
0$
0%

#431581
0+
1.
1/
11
02
03

#435000
1!
1$
1%

#436522
b10 ,

#437295
b110 ,
1-
10
01

#440000
0!
0$
0%

#440237
b100 ,
0-
0.
00
11
12

#441581
1+
0/
02
13

#445000
1!
1$
1%

#446522
b101 ,

#450000
0!
0$
0%

#451581
0+
1/
12
03

#455000
1!
1$
1%

#456522
b100 ,

#460000
0!
0$
0%

#460237
b110 ,
1-
1.
10
01
02

#461581
1+
0-
0.
0/
00
11
12
13

#465000
1!
1$
1%

#466522
b111 ,

#470000
0!
0$
0%

#471581
0+
1-
1.
1/
10
01
02
03

#475000
1!
1$
1%

#476522
b110 ,

#477295
b10 ,
0-
00
11

#479883
b1010 ,
10

#480000
0!
0$
0%

#480237
b1000 ,
0.
01
12

#481581
1+
0/
02
13

#485000
1!
1$
1%

#486522
b1001 ,

#489829
14

#489895
1*

#490000
0!
0$
0%

#491581
0+
1/
12
03

#495000
1!
1$
1%

#496522
b1000 ,

#499603
1(

#499829
04

#499883
b0 ,
00

#499895
0*

#500000
0!
0$
0%

#501581
1+
0/
02
13

#505000
1!
1$
1%

#506522
b10 )
b1 ,

#507295
b110 )

#508552
b101 6

#509256
b1 6

#509275
b11 6

#509603
0(

#510000
0!
0$
0%

#510237
b100 )

#510799
b10 #

#511581
0+
1/
12
03

#511972
b1 6

#512318
b110 #

#513882
b101 6

#514125
b100 #

#515000
1!
1$
1%

#516522
b0 ,

#520000
0!
0$
0%

#520237
b10 ,
1.
11
02

#521581
1+
0.
0/
01
12
13

#525000
1!
1$
1%

#526522
b11 ,

#530000
0!
0$
0%

#531581
0+
1.
1/
11
02
03

#535000
1!
1$
1%

#536522
b10 ,

#537295
b110 ,
1-
10
01

#540000
0!
0$
0%

#540237
b100 ,
0-
0.
00
11
12

#541581
1+
0/
02
13

#545000
1!
1$
1%

#546522
b101 ,

#550000
0!
0$
0%

#551581
0+
1/
12
03

#555000
1!
1$
1%

#556522
b100 ,

#560000
0!
0$
0%

#560237
b110 ,
1-
1.
10
01
02

#561581
1+
0-
0.
0/
00
11
12
13

#565000
1!
1$
1%

#566522
b111 ,

#570000
0!
0$
0%

#571581
0+
1-
1.
1/
10
01
02
03

#575000
1!
1$
1%

#576522
b110 ,

#577295
b10 ,
0-
00
11

#579883
b1010 ,
10

#580000
0!
0$
0%

#580237
b1000 ,
0.
01
12

#581581
1+
0/
02
13

#585000
1!
1$
1%

#586522
b1001 ,

#589829
14

#589895
1*

#590000
0!
0$
0%

#591581
0+
1/
12
03

#595000
1!
1$
1%

#596522
b1000 ,

#599603
1(

#599829
04

#599883
b0 ,
00

#599895
0*

#600000
0!
0$
0%

#601581
1+
0/
02
13

#605000
1!
1$
1%

#606522
b101 )
b1 ,

#608552
b100 6

#609275
b110 6

#609603
0(

#610000
0!
0$
0%

#610799
b101 #

#611581
0+
1/
12
03

#615000
1!
1$
1%

#616522
b0 ,

#620000
0!
0$
0%

#620237
b10 ,
1.
11
02

#621581
1+
0.
0/
01
12
13

#625000
1!
1$
1%

#626522
b11 ,

#630000
0!
0$
0%

#631581
0+
1.
1/
11
02
03

#635000
1!
1$
1%

#636522
b10 ,

#637295
b110 ,
1-
10
01

#640000
0!
0$
0%

#640237
b100 ,
0-
0.
00
11
12

#641581
1+
0/
02
13

#645000
1!
1$
1%

#646522
b101 ,

#650000
0!
0$
0%

#651581
0+
1/
12
03

#655000
1!
1$
1%

#656522
b100 ,

#660000
0!
0$
0%

#660237
b110 ,
1-
1.
10
01
02

#661581
1+
0-
0.
0/
00
11
12
13

#665000
1!
1$
1%

#666522
b111 ,

#670000
0!
0$
0%

#671581
0+
1-
1.
1/
10
01
02
03

#675000
1!
1$
1%

#676522
b110 ,

#677295
b10 ,
0-
00
11

#679883
b1010 ,
10

#680000
0!
0$
0%

#680237
b1000 ,
0.
01
12

#681581
1+
0/
02
13

#685000
1!
1$
1%

#686522
b1001 ,

#689829
14

#689895
1*

#690000
0!
0$
0%

#691581
0+
1/
12
03

#695000
1!
1$
1%

#696522
b1000 ,

#699603
1(

#699829
04

#699883
b0 ,
00

#699895
0*

#700000
0!
0$
0%

#701581
1+
0/
02
13

#705000
1!
1$
1%

#706522
b100 )
b1 ,

#708552
b111 6

#709275
b101 6

#709603
0(

#710000
0!
0$
0%

#710237
b110 )

#710799
b100 #

#711581
0+
1/
12
03

#711972
b111 6

#714125
b110 #

#715000
1!
1$
1%

#716522
b0 ,

#720000
0!
0$
0%

#720237
b10 ,
1.
11
02

#721581
1+
0.
0/
01
12
13

#725000
1!
1$
1%

#726522
b11 ,

#730000
0!
0$
0%

#731581
0+
1.
1/
11
02
03

#735000
1!
1$
1%

#736522
b10 ,

#737295
b110 ,
1-
10
01

#740000
0!
0$
0%

#740237
b100 ,
0-
0.
00
11
12

#741581
1+
0/
02
13

#745000
1!
1$
1%

#746522
b101 ,

#750000
0!
0$
0%

#751581
0+
1/
12
03

#755000
1!
1$
1%

#756522
b100 ,

#760000
0!
0$
0%

#760237
b110 ,
1-
1.
10
01
02

#761581
1+
0-
0.
0/
00
11
12
13

#765000
1!
1$
1%

#766522
b111 ,

#770000
0!
0$
0%

#771581
0+
1-
1.
1/
10
01
02
03

#775000
1!
1$
1%

#776522
b110 ,

#777295
b10 ,
0-
00
11

#779883
b1010 ,
10

#780000
0!
0$
0%

#780237
b1000 ,
0.
01
12

#781581
1+
0/
02
13

#785000
1!
1$
1%

#786522
b1001 ,

#789829
14

#789895
1*

#790000
0!
0$
0%

#791581
0+
1/
12
03

#795000
1!
1$
1%

#796522
b1000 ,

#799603
1(

#799829
04

#799883
b0 ,
00

#799895
0*

#800000
0!
0$
0%

#801581
1+
0/
02
13

#805000
1!
1$
1%

#806522
b111 )
b1 ,

#808552
b110 6

#808700
b1110 6

#809256
b1010 6

#809275
b1000 6

#809603
0(

#810000
0!
0$
0%

#810799
b111 #

#811581
0+
1/
12
03

#815000
1!
1$
1%

#816522
b0 ,

#820000
0!
0$
0%

#820237
b10 ,
1.
11
02

#821581
1+
0.
0/
01
12
13

#825000
1!
1$
1%

#826522
b11 ,

#830000
0!
0$
0%

#831581
0+
1.
1/
11
02
03

#835000
1!
1$
1%

#836522
b10 ,

#837295
b110 ,
1-
10
01

#840000
0!
0$
0%

#840237
b100 ,
0-
0.
00
11
12

#841581
1+
0/
02
13

#845000
1!
1$
1%

#846522
b101 ,

#850000
0!
0$
0%

#851581
0+
1/
12
03

#855000
1!
1$
1%

#856522
b100 ,

#860000
0!
0$
0%

#860237
b110 ,
1-
1.
10
01
02

#861581
1+
0-
0.
0/
00
11
12
13

#865000
1!
1$
1%

#866522
b111 ,

#870000
0!
0$
0%

#871581
0+
1-
1.
1/
10
01
02
03

#875000
1!
1$
1%

#876522
b110 ,

#877295
b10 ,
0-
00
11

#879883
b1010 ,
10

#880000
0!
0$
0%

#880237
b1000 ,
0.
01
12

#881581
1+
0/
02
13

#885000
1!
1$
1%

#886522
b1001 ,

#889829
14

#889895
1*

#890000
0!
0$
0%

#891581
0+
1/
12
03

#895000
1!
1$
1%

#896522
b1000 ,

#899603
1(

#899829
04

#899883
b0 ,
00

#899895
0*

#900000
0!
0$
0%

#901581
1+
0/
02
13

#905000
1!
1$
1%

#906522
b110 )
b1 ,

#907295
b10 )

#908552
b1001 6

#908700
b1 6

#909256
b101 6

#909275
b111 6

#909603
0(

#909883
b1010 )

#910000
0!
0$
0%

#910237
b1000 )

#910799
b110 #

#911581
0+
1/
12
03

#911972
b101 6

#912318
b10 #

#913882
b1 6

#913896
b1001 6

#913900
b1010 #

#914125
b1000 #

#915000
1!
1$
1%

#916522
b0 ,

#920000
0!
0$
0%

#920237
b10 ,
1.
11
02

#921581
1+
0.
0/
01
12
13

#925000
1!
1$
1%

#926522
b11 ,

#930000
0!
0$
0%

#931581
0+
1.
1/
11
02
03

#935000
1!
1$
1%

#936522
b10 ,

#937295
b110 ,
1-
10
01

#940000
0!
0$
0%

#940237
b100 ,
0-
0.
00
11
12

#941581
1+
0/
02
13

#945000
1!
1$
1%

#946522
b101 ,

#950000
0!
0$
0%

#951581
0+
1/
12
03

#955000
1!
1$
1%

#956522
b100 ,

#960000
0!
0$
0%

#960237
b110 ,
1-
1.
10
01
02

#961581
1+
0-
0.
0/
00
11
12
13

#965000
1!
1$
1%

#966522
b111 ,

#970000
0!
0$
0%

#971581
0+
1-
1.
1/
10
01
02
03

#975000
1!
1$
1%

#976522
b110 ,

#977295
b10 ,
0-
00
11

#979883
b1010 ,
10

#980000
0!
0$
0%

#980237
b1000 ,
0.
01
12

#981581
1+
0/
02
13

#985000
1!
1$
1%

#986522
b1001 ,

#989829
14

#989895
1*

#990000
0!
0$
0%

#991581
0+
1/
12
03

#995000
1!
1$
1%

#996522
b1000 ,

#999603
1(

#999829
04

#999883
b0 ,
00

#999895
0*

#1000000
0!
0$
0%

#1001581
1+
0/
02
13

#1005000
1!
1$
1%

#1006522
b1001 )
b1 ,

#1008552
b1000 6

#1009275
b1010 6

#1009603
0(

#1010000
0!
0$
0%

#1010799
b1001 #

#1011581
0+
1/
12
03

#1015000
1!
1$
1%

#1016522
b0 ,

#1020000
0!
0$
0%

#1020237
b10 ,
1.
11
02

#1021581
1+
0.
0/
01
12
13

#1025000
1!
1$
1%

#1026522
b11 ,

#1030000
0!
0$
0%

#1031581
0+
1.
1/
11
02
03

#1035000
1!
1$
1%

#1036522
b10 ,

#1037295
b110 ,
1-
10
01

#1040000
0!
0$
0%

#1040237
b100 ,
0-
0.
00
11
12

#1041581
1+
0/
02
13

#1045000
1!
1$
1%

#1046522
b101 ,

#1050000
0!
0$
0%

#1051581
0+
1/
12
03

#1055000
1!
1$
1%

#1056522
b100 ,

#1060000
0!
0$
0%

#1060237
b110 ,
1-
1.
10
01
02

#1061581
1+
0-
0.
0/
00
11
12
13

#1065000
1!
1$
1%

#1066522
b111 ,

#1070000
0!
0$
0%

#1071581
0+
1-
1.
1/
10
01
02
03

#1075000
1!
1$
1%

#1076522
b110 ,

#1077295
b10 ,
0-
00
11

#1079883
b1010 ,
10

#1080000
0!
0$
0%

#1080237
b1000 ,
0.
01
12

#1081581
1+
0/
02
13

#1085000
1!
1$
1%

#1086522
b1001 ,

#1089829
14

#1089895
1*

#1090000
0!
0$
0%

#1091581
0+
1/
12
03

#1095000
1!
1$
1%

#1096522
b1000 ,

#1099603
1(

#1099829
04

#1099883
b0 ,
00

#1099895
0*

#1100000
0!
0$
0%

#1101581
1+
0/
02
13

#1105000
1!
1$
1%

#1106522
b1000 )
b1 ,

#1108552
b1011 6

#1109275
b1001 6

#1109603
0(

#1110000
0!
0$
0%

#1110237
b1010 )

#1110799
b1000 #

#1111581
0+
1/
12
03

#1111972
b1011 6

#1114125
b1010 #

#1115000
1!
1$
1%

#1116522
b0 ,

#1120000
0!
0$
0%

#1120237
b10 ,
1.
11
02

#1121581
1+
0.
0/
01
12
13

#1125000
1!
1$
1%

#1126522
b11 ,

#1130000
0!
0$
0%

#1131581
0+
1.
1/
11
02
03

#1135000
1!
1$
1%

#1136522
b10 ,

#1137295
b110 ,
1-
10
01

#1140000
0!
0$
0%

#1140237
b100 ,
0-
0.
00
11
12

#1141581
1+
0/
02
13

#1145000
1!
1$
1%

#1146522
b101 ,

#1150000
0!
0$
0%

#1151581
0+
1/
12
03

#1155000
1!
1$
1%

#1156522
b100 ,

#1160000
0!
0$
0%

#1160237
b110 ,
1-
1.
10
01
02

#1161581
1+
0-
0.
0/
00
11
12
13

#1165000
1!
1$
1%

#1166522
b111 ,

#1170000
0!
0$
0%

#1171581
0+
1-
1.
1/
10
01
02
03

#1175000
1!
1$
1%

#1176522
b110 ,

#1177295
b10 ,
0-
00
11

#1179883
b1010 ,
10

#1180000
0!
0$
0%

#1180237
b1000 ,
0.
01
12

#1181581
1+
0/
02
13

#1185000
1!
1$
1%

#1186522
b1001 ,

#1189829
14

#1189895
1*

#1190000
0!
0$
0%

#1191581
0+
1/
12
03

#1195000
1!
1$
1%

#1196522
b1000 ,

#1199603
1(

#1199829
04

#1199883
b0 ,
00

#1199895
0*

#1200000
0!
0$
0%

#1201581
1+
0/
02
13

#1205000
1!
1$
1%

#1206522
b1011 )
b1 ,

#1208552
b1010 6

#1209256
b1110 6

#1209275
b1100 6

#1209603
0(

#1210000
0!
0$
0%

#1210799
b1011 #

#1211581
0+
1/
12
03

#1215000
1!
1$
1%

#1216522
b0 ,

#1220000
0!
0$
0%

#1220237
b10 ,
1.
11
02

#1221581
1+
0.
0/
01
12
13

#1225000
1!
1$
1%

#1226522
b11 ,

#1230000
0!
0$
0%

#1231581
0+
1.
1/
11
02
03

#1235000
1!
1$
1%

#1236522
b10 ,

#1237295
b110 ,
1-
10
01

#1240000
0!
0$
0%

#1240237
b100 ,
0-
0.
00
11
12

#1241581
1+
0/
02
13

#1245000
1!
1$
1%

#1246522
b101 ,

#1250000
0!
0$
0%

#1251581
0+
1/
12
03

#1255000
1!
1$
1%

#1256522
b100 ,

#1260000
0!
0$
0%

#1260237
b110 ,
1-
1.
10
01
02

#1261581
1+
0-
0.
0/
00
11
12
13

#1265000
1!
1$
1%

#1266522
b111 ,

#1270000
0!
0$
0%

#1271581
0+
1-
1.
1/
10
01
02
03

#1275000
1!
1$
1%

#1276522
b110 ,

#1277295
b10 ,
0-
00
11

#1279883
b1010 ,
10

#1280000
0!
0$
0%

#1280237
b1000 ,
0.
01
12

#1281581
1+
0/
02
13

#1285000
1!
1$
1%

#1286522
b1001 ,

#1289829
14

#1289895
1*

#1290000
0!
0$
0%

#1291581
0+
1/
12
03

#1295000
1!
1$
1%

#1296522
b1000 ,

#1299603
1(

#1299829
04

#1299883
b0 ,
00

#1299895
0*

#1300000
0!
0$
0%

#1301581
1+
0/
02
13

#1305000
1!
1$
1%

#1306522
b1010 )
b1 ,

#1307295
b1110 )

#1308552
b1101 6

#1309256
b1001 6

#1309275
b1011 6

#1309603
0(

#1310000
0!
0$
0%

#1310237
b1100 )

#1310799
b1010 #

#1311581
0+
1/
12
03

#1311972
b1001 6

#1312318
b1110 #

#1313882
b1101 6

#1314125
b1100 #

#1315000
1!
1$
1%

#1316522
b0 ,

#1320000
0!
0$
0%

#1320237
b10 ,
1.
11
02

#1321581
1+
0.
0/
01
12
13

#1325000
1!
1$
1%

#1326522
b11 ,

#1330000
0!
0$
0%

#1331581
0+
1.
1/
11
02
03

#1335000
1!
1$
1%

#1336522
b10 ,

#1337295
b110 ,
1-
10
01

#1340000
0!
0$
0%

#1340237
b100 ,
0-
0.
00
11
12

#1341581
1+
0/
02
13

#1345000
1!
1$
1%

#1346522
b101 ,

#1350000
0!
0$
0%

#1351581
0+
1/
12
03

#1355000
1!
1$
1%

#1356522
b100 ,

#1360000
0!
0$
0%

#1360237
b110 ,
1-
1.
10
01
02

#1361581
1+
0-
0.
0/
00
11
12
13

#1365000
1!
1$
1%

#1366522
b111 ,

#1370000
0!
0$
0%

#1371581
0+
1-
1.
1/
10
01
02
03

#1375000
1!
1$
1%

#1376522
b110 ,

#1377295
b10 ,
0-
00
11

#1379883
b1010 ,
10

#1380000
0!
0$
0%

#1380237
b1000 ,
0.
01
12

#1381581
1+
0/
02
13

#1385000
1!
1$
1%

#1386522
b1001 ,

#1389829
14

#1389895
1*

#1390000
0!
0$
0%

#1391581
0+
1/
12
03

#1395000
1!
1$
1%

#1396522
b1000 ,

#1399603
1(

#1399829
04

#1399883
b0 ,
00

#1399895
0*

#1400000
0!
0$
0%

#1401581
1+
0/
02
13

#1405000
1!
1$
1%

#1406522
b1101 )
b1 ,

#1408552
b1100 6

#1409275
b1110 6

#1409603
0(

#1410000
0!
0$
0%

#1410799
b1101 #

#1411581
0+
1/
12
03

#1415000
1!
1$
1%

#1416522
b0 ,

#1420000
0!
0$
0%

#1420237
b10 ,
1.
11
02

#1421581
1+
0.
0/
01
12
13

#1425000
1!
1$
1%

#1426522
b11 ,

#1430000
0!
0$
0%

#1431581
0+
1.
1/
11
02
03

#1435000
1!
1$
1%

#1436522
b10 ,

#1437295
b110 ,
1-
10
01

#1440000
0!
0$
0%

#1440237
b100 ,
0-
0.
00
11
12

#1441581
1+
0/
02
13

#1445000
1!
1$
1%

#1446522
b101 ,

#1450000
0!
0$
0%

#1451581
0+
1/
12
03

#1455000
1!
1$
1%

#1456522
b100 ,

#1460000
0!
0$
0%

#1460237
b110 ,
1-
1.
10
01
02

#1461581
1+
0-
0.
0/
00
11
12
13

#1465000
1!
1$
1%

#1466522
b111 ,

#1470000
0!
0$
0%

#1471581
0+
1-
1.
1/
10
01
02
03

#1475000
1!
1$
1%

#1476522
b110 ,

#1477295
b10 ,
0-
00
11

#1479883
b1010 ,
10

#1480000
0!
0$
0%

#1480237
b1000 ,
0.
01
12

#1481581
1+
0/
02
13

#1485000
1!
1$
1%

#1486522
b1001 ,

#1489829
14

#1489895
1*

#1490000
0!
0$
0%

#1491581
0+
1/
12
03

#1495000
1!
1$
1%

#1496522
b1000 ,

#1499603
1(

#1499829
04

#1499883
b0 ,
00

#1499895
0*

#1500000
0!
0$
0%

#1501581
1+
0/
02
13

#1505000
1!
1$
1%

#1506522
b1100 )
b1 ,

#1508552
b1111 6

#1509275
b1101 6

#1509603
0(

#1510000
0!
0$
0%

#1510237
b1110 )

#1510799
b1100 #

#1511581
0+
1/
12
03

#1511972
b1111 6

#1514125
b1110 #

#1515000
1!
1$
1%

#1516522
b0 ,

#1520000
0!
0$
0%

#1520237
b10 ,
1.
11
02

#1521581
1+
0.
0/
01
12
13

#1525000
1!
1$
1%

#1526522
b11 ,

#1530000
0!
0$
0%

#1531581
0+
1.
1/
11
02
03

#1535000
1!
1$
1%

#1536522
b10 ,

#1537295
b110 ,
1-
10
01

#1540000
0!
0$
0%

#1540237
b100 ,
0-
0.
00
11
12

#1541581
1+
0/
02
13

#1545000
1!
1$
1%

#1546522
b101 ,

#1550000
0!
0$
0%

#1551581
0+
1/
12
03

#1555000
1!
1$
1%

#1556522
b100 ,

#1560000
0!
0$
0%

#1560237
b110 ,
1-
1.
10
01
02

#1561581
1+
0-
0.
0/
00
11
12
13

#1565000
1!
1$
1%

#1566522
b111 ,

#1570000
0!
0$
0%

#1571581
0+
1-
1.
1/
10
01
02
03

#1575000
1!
1$
1%

#1576522
b110 ,

#1577295
b10 ,
0-
00
11

#1579883
b1010 ,
10

#1580000
0!
0$
0%

#1580237
b1000 ,
0.
01
12

#1581581
1+
0/
02
13

#1585000
1!
1$
1%

#1586522
b1001 ,

#1589829
14

#1589895
1*

#1590000
0!
0$
0%

#1591581
0+
1/
12
03

#1595000
1!
1$
1%

#1596522
b1000 ,

#1599603
1(

#1599829
04

#1599883
b0 ,
00

#1599895
0*

#1600000
0!
0$
0%

#1601581
1+
0/
02
13

#1605000
1!
1$
1%

#1606522
b1111 )
b1 ,

#1608552
b1110 6

#1608700
b110 6

#1609256
b10 6

#1609275
b0 6

#1609603
0(

#1610000
0!
0$
0%

#1610799
b1111 #

#1611581
0+
1/
12
03

#1615000
1!
1$
1%

#1616522
b0 ,

#1620000
0!
0$
0%

#1620237
b10 ,
1.
11
02

#1621581
1+
0.
0/
01
12
13

#1625000
1!
1$
1%

#1626522
b11 ,

#1630000
0!
0$
0%

#1631581
0+
1.
1/
11
02
03

#1635000
1!
1$
1%

#1636522
b10 ,

#1637295
b110 ,
1-
10
01

#1640000
0!
0$
0%

#1640237
b100 ,
0-
0.
00
11
12

#1641581
1+
0/
02
13

#1645000
1!
1$
1%

#1646522
b101 ,

#1650000
0!
0$
0%

#1651581
0+
1/
12
03

#1655000
1!
1$
1%

#1656522
b100 ,

#1660000
0!
0$
0%

#1660237
b110 ,
1-
1.
10
01
02

#1661581
1+
0-
0.
0/
00
11
12
13

#1665000
1!
1$
1%

#1666522
b111 ,

#1670000
0!
0$
0%

#1671581
0+
1-
1.
1/
10
01
02
03

#1675000
1!
1$
1%

#1676522
b110 ,

#1677295
b10 ,
0-
00
11

#1679883
b1010 ,
10

#1680000
0!
0$
0%

#1680237
b1000 ,
0.
01
12

#1681581
1+
0/
02
13

#1685000
1!
1$
1%

#1686522
b1001 ,

#1689829
14

#1689895
1*

#1690000
0!
0$
0%

#1691581
0+
1/
12
03

#1695000
1!
1$
1%

#1696522
b1000 ,

#1699603
1(

#1699829
04

#1699883
b0 ,
00

#1699895
0*

#1700000
0!
0$
0%

#1701581
1+
0/
02
13

#1705000
1!
1$
1%

#1706522
b1110 )
b1 ,

#1707295
b1010 )

#1708552
b1 6

#1708700
b1001 6

#1709256
b1101 6

#1709275
b1111 6

#1709603
0(

#1709883
b10 )

#1710000
0!
0$
0%

#1710237
b0 )

#1710799
b1110 #

#1711581
0+
1/
12
03

#1711972
b1101 6

#1712318
b1010 #

#1713882
b1001 6

#1713896
b1 6

#1713900
b10 #

#1714125
b0 #

#1715000
1!
1$
1%

#1716522
b0 ,

#1720000
0!
0$
0%

#1720237
b10 ,
1.
11
02

#1721581
1+
0.
0/
01
12
13

#1725000
1!
1$
1%

#1726522
b11 ,

#1730000
0!
0$
0%

#1731581
0+
1.
1/
11
02
03

#1735000
1!
1$
1%

#1736522
b10 ,

#1737295
b110 ,
1-
10
01

#1740000
0!
0$
0%

#1740237
b100 ,
0-
0.
00
11
12

#1741581
1+
0/
02
13

#1745000
1!
1$
1%

#1746522
b101 ,

#1750000
0!
0$
0%

#1751581
0+
1/
12
03

#1755000
1!
1$
1%

#1756522
b100 ,

#1760000
0!
0$
0%

#1760237
b110 ,
1-
1.
10
01
02

#1761581
1+
0-
0.
0/
00
11
12
13

#1765000
1!
1$
1%

#1766522
b111 ,

#1770000
0!
0$
0%

#1771581
0+
1-
1.
1/
10
01
02
03

#1775000
1!
1$
1%

#1776522
b110 ,

#1777295
b10 ,
0-
00
11

#1779883
b1010 ,
10

#1780000
0!
0$
0%

#1780237
b1000 ,
0.
01
12

#1781581
1+
0/
02
13

#1785000
1!
1$
1%

#1786522
b1001 ,

#1789829
14

#1789895
1*

#1790000
0!
0$
0%

#1791581
0+
1/
12
03

#1795000
1!
1$
1%

#1796522
b1000 ,

#1799603
1(

#1799829
04

#1799883
b0 ,
00

#1799895
0*

#1800000
0!
0$
0%

#1801581
1+
0/
02
13

#1805000
1!
1$
1%

#1806522
b1 )
b1 ,

