outputs/wave_random.vcd
$date
   Wed Oct 16 13:06:08 2024
$end

$version
  2023.2.2
  $dumpfile ("waveform.vcd") 
$end

$timescale
  1ps
$end

$scope module tb_counter $end
$var reg 1 ! tb_clk $end
$var reg 1 " tb_rst $end
$var wire 4 # tb_led [3:0] $end
$scope module dut $end
$var wire 1 $ i_clk $end
$var wire 1 % i_clk_IBUF $end
$var wire 1 & i_rst $end
$var wire 1 ' i_rst_IBUF $end
$var wire 1 ( o_pulse $end
$var wire 4 # ov_led [3:0] $end
$var wire 4 ) ov_led_OBUF [3:0] $end
$scope module CLOCK_ENABLE_GEN $end
$var wire 1 ( E [0:0] $end
$var wire 1 ' SR [0:0] $end
$var wire 1 * \count[0]_i_1__0_n_0  $end
$var wire 1 + \count[0]_i_3_n_0  $end
$var wire 4 , count_reg [3:0] $end
$var wire 1 - \count_reg[0]_i_2_n_1  $end
$var wire 1 . \count_reg[0]_i_2_n_2  $end
$var wire 1 / \count_reg[0]_i_2_n_3  $end
$var wire 1 0 \count_reg[0]_i_2_n_4  $end
$var wire 1 1 \count_reg[0]_i_2_n_5  $end
$var wire 1 2 \count_reg[0]_i_2_n_6  $end
$var wire 1 3 \count_reg[0]_i_2_n_7  $end
$var wire 1 % i_clk_IBUF $end
$var wire 1 4 o_pulse_i_1_n_0 $end
$var wire 1 5 \NLW_count_reg[0]_i_2_CO_UNCONNECTED  [0:0] $end
$upscope $end
$scope module COUNTER $end
$var wire 1 ( E [0:0] $end
$var wire 4 ) Q [3:0] $end
$var wire 1 ' SR [0:0] $end
$var wire 1 % i_clk_IBUF $end
$var wire 4 6 plusOp [3:0] $end
$upscope $end
$upscope $end
$upscope $end
$enddefinitions $end

#0
$dumpvars
0!
1"
bx #
0$
0%
1&
1'
x(
bx )
x*
x+
bx ,
x-
x.
x/
x0
x1
x2
x3
x4
x5
bx 6
$end

#100
0(
b0 )
b0 ,
0-
0.
00
01
05

#1342
04

#1395
1+
0/
02
13

#2183
bx0x #

#2567
bx0xx 6

#3205
bx0x1 6

#3385
bx001 6

#4162
bx00 #

#4540
b0x00 #

#5000
1!
1$
1%

#5005
b1 6

#5546
b0 #

#7354
1*

#10000
0!
0$
0%

#15000
1!
1$
1%

#20000
0!
0$
0%

#25000
1!
0"
1$
1%
0&
0'

#30000
0!
0$
0%

#32354
0*

#35000
1!
1$
1%

#40000
0!
0$
0%

#45000
1!
1$
1%

#50000
0!
0$
0%

#55000
1!
1$
1%

#60000
0!
0$
0%

#65000
1!
1$
1%

#70000
0!
0$
0%

#75000
1!
1$
1%

#80000
0!
0$
0%

#85000
1!
1$
1%

#90000
0!
0$
0%

#95000
1!
1$
1%

#100000
0!
0$
0%

#105000
1!
1$
1%

#108911
b1 ,

#110000
0!
0$
0%

#110206
0+
1/
12
03

#115000
1!
1$
1%

#118911
b0 ,

#118960
b10 ,
1.
11
02

#120000
0!
0$
0%

#120206
1+
0.
0/
01
12
13

#125000
1!
1$
1%

#128911
b11 ,

#130000
0!
0$
0%

#130206
0+
1.
1/
11
02
03

#135000
1!
1$
1%

#138911
b10 ,

#138960
b0 ,
0.
01
12

#140000
0!
0$
0%

#140206
1+
0/
02
13

#140758
b100 ,
11

#145000
1!
1$
1%

#148911
b101 ,

#150000
0!
0$
0%

#150206
0+
1/
12
03

#155000
1!
1$
1%

#158911
b100 ,

#158960
b110 ,
1-
1.
10
01
02

#160000
0!
0$
0%

#160206
1+
0-
0.
0/
00
11
12
13

#165000
1!
1$
1%

#168911
b111 ,

#170000
0!
0$
0%

#170206
0+
1-
1.
1/
10
01
02
03

#175000
1!
1$
1%

#178911
b110 ,

#178960
b100 ,
0-
0.
00
11
12

#179509
b1100 ,
10

#180000
0!
0$
0%

#180206
1+
0/
02
13

#180758
b1000 ,
01

#185000
1!
1$
1%

#188911
b1001 ,

#190000
0!
0$
0%

#190153
14

#190206
0+
1/
12
03

#190857
1*

#195000
1!
1$
1%

#198911
b1000 ,

#199509
b0 ,
00

#199823
1(

#200000
0!
0$
0%

#200153
04

#200206
1+
0/
02
13

#200857
0*

#205000
1!
1$
1%

#208911
b1 )
b1 ,

#209823
0(

#210000
0!
0$
0%

#210206
0+
1/
12
03

#211176
b11 6

#212016
b10 6

#212973
b1 #

#215000
1!
1$
1%

#218911
b0 ,

#218960
b10 ,
1.
11
02

#220000
0!
0$
0%

#220206
1+
0.
0/
01
12
13

#225000
1!
1$
1%

#228911
b11 ,

#230000
0!
0$
0%

#230206
0+
1.
1/
11
02
03

#235000
1!
1$
1%

#238911
b10 ,

#238960
b0 ,
0.
01
12

#240000
0!
0$
0%

#240206
1+
0/
02
13

#240758
b100 ,
11

#245000
1!
1$
1%

#248911
b101 ,

#250000
0!
0$
0%

#250206
0+
1/
12
03

#255000
1!
1$
1%

#258911
b100 ,

#258960
b110 ,
1-
1.
10
01
02

#260000
0!
0$
0%

#260206
1+
0-
0.
0/
00
11
12
13

#265000
1!
1$
1%

#268911
b111 ,

#270000
0!
0$
0%

#270206
0+
1-
1.
1/
10
01
02
03

#275000
1!
1$
1%

#278911
b110 ,

#278960
b100 ,
0-
0.
00
11
12

#279509
b1100 ,
10

#280000
0!
0$
0%

#280206
1+
0/
02
13

#280758
b1000 ,
01

#285000
1!
1$
1%

#288911
b1001 ,

#290000
0!
0$
0%

#290153
14

#290206
0+
1/
12
03

#290857
1*

#295000
1!
1$
1%

#298911
b1000 ,

#299509
b0 ,
00

#299823
1(

#300000
0!
0$
0%

#300153
04

#300206
1+
0/
02
13

#300857
0*

#305000
1!
1$
1%

#308911
b0 )
b1 ,

#308960
b10 )

#309823
0(

#310000
0!
0$
0%

#310206
0+
1/
12
03

#311043
b11 #

#311176
b0 6

#312016
b1 6

#312245
b11 6

#312973
b10 #

#315000
1!
1$
1%

#318911
b0 ,

#318960
b10 ,
1.
11
02

#320000
0!
0$
0%

#320206
1+
0.
0/
01
12
13

#325000
1!
1$
1%

#328911
b11 ,

#330000
0!
0$
0%

#330206
0+
1.
1/
11
02
03

#335000
1!
1$
1%

#338911
b10 ,

#338960
b0 ,
0.
01
12

#340000
0!
0$
0%

#340206
1+
0/
02
13

#340758
b100 ,
11

#345000
1!
1$
1%

#348911
b101 ,

#350000
0!
0$
0%

#350206
0+
1/
12
03

#355000
1!
1$
1%

#358911
b100 ,

#358960
b110 ,
1-
1.
10
01
02

#360000
0!
0$
0%

#360206
1+
0-
0.
0/
00
11
12
13

#365000
1!
1$
1%

#368911
b111 ,

#370000
0!
0$
0%

#370206
0+
1-
1.
1/
10
01
02
03

#375000
1!
1$
1%

#378911
b110 ,

#378960
b100 ,
0-
0.
00
11
12

#379509
b1100 ,
10

#380000
0!
0$
0%

#380206
1+
0/
02
13

#380758
b1000 ,
01

#385000
1!
1$
1%

#388911
b1001 ,

#390000
0!
0$
0%

#390153
14

#390206
0+
1/
12
03

#390857
1*

#395000
1!
1$
1%

#398911
b1000 ,

#399509
b0 ,
00

#399823
1(

#400000
0!
0$
0%

#400153
04

#400206
1+
0/
02
13

#400857
0*

#405000
1!
1$
1%

#408911
b11 )
b1 ,

#409823
0(

#410000
0!
0$
0%

#410206
0+
1/
12
03

#411176
b1 6

#411381
b101 6

#412016
b100 6

#412973
b11 #

#415000
1!
1$
1%

#418911
b0 ,

#418960
b10 ,
1.
11
02

#420000
0!
0$
0%

#420206
1+
0.
0/
01
12
13

#425000
1!
1$
1%

#428911
b11 ,

#430000
0!
0$
0%

#430206
0+
1.
1/
11
02
03

#435000
1!
1$
1%

#438911
b10 ,

#438960
b0 ,
0.
01
12

#440000
0!
0$
0%

#440206
1+
0/
02
13

#440758
b100 ,
11

#445000
1!
1$
1%

#448911
b101 ,

#450000
0!
0$
0%

#450206
0+
1/
12
03

#455000
1!
1$
1%

#458911
b100 ,

#458960
b110 ,
1-
1.
10
01
02

#460000
0!
0$
0%

#460206
1+
0-
0.
0/
00
11
12
13

#465000
1!
1$
1%

#468911
b111 ,

#470000
0!
0$
0%

#470206
0+
1-
1.
1/
10
01
02
03

#475000
1!
1$
1%

#478911
b110 ,

#478960
b100 ,
0-
0.
00
11
12

#479509
b1100 ,
10

#480000
0!
0$
0%

#480206
1+
0/
02
13

#480758
b1000 ,
01

#485000
1!
1$
1%

#488911
b1001 ,

#490000
0!
0$
0%

#490153
14

#490206
0+
1/
12
03

#490857
1*

#495000
1!
1$
1%

#498911
b1000 ,

#499509
b0 ,
00

#499823
1(

#500000
0!
0$
0%

#500153
04

#500206
1+
0/
02
13

#500857
0*

#505000
1!
1$
1%

#508911
b10 )
b1 ,

#508960
b0 )

#509823
0(

#510000
0!
0$
0%

#510206
0+
1/
12
03

#510758
b100 )

#511043
b1 #

#511176
b110 6

#511381
b10 6

#512016
b11 6

#512245
b1 6

#512875
b101 6

#512973
b0 #

#515000
1!
1$
1%

#516204
b100 #

#518911
b0 ,

#518960
b10 ,
1.
11
02

#520000
0!
0$
0%

#520206
1+
0.
0/
01
12
13

#525000
1!
1$
1%

#528911
b11 ,

#530000
0!
0$
0%

#530206
0+
1.
1/
11
02
03

#535000
1!
1$
1%

#538911
b10 ,

#538960
b0 ,
0.
01
12

#540000
0!
0$
0%

#540206
1+
0/
02
13

#540758
b100 ,
11

#545000
1!
1$
1%

#548911
b101 ,

#550000
0!
0$
0%

#550206
0+
1/
12
03

#555000
1!
1$
1%

#558911
b100 ,

#558960
b110 ,
1-
1.
10
01
02

#560000
0!
0$
0%

#560206
1+
0-
0.
0/
00
11
12
13

#565000
1!
1$
1%

#568911
b111 ,

#570000
0!
0$
0%

#570206
0+
1-
1.
1/
10
01
02
03

#575000
1!
1$
1%

#578911
b110 ,

#578960
b100 ,
0-
0.
00
11
12

#579509
b1100 ,
10

#580000
0!
0$
0%

#580206
1+
0/
02
13

#580758
b1000 ,
01

#585000
1!
1$
1%

#588911
b1001 ,

#590000
0!
0$
0%

#590153
14

#590206
0+
1/
12
03

#590857
1*

#595000
1!
1$
1%

#598911
b1000 ,

#599509
b0 ,
00

#599823
1(

#600000
0!
0$
0%

#600153
04

#600206
1+
0/
02
13

#600857
0*

#605000
1!
1$
1%

#608911
b101 )
b1 ,

#609823
0(

#610000
0!
0$
0%

#610206
0+
1/
12
03

#611176
b111 6

#612016
b110 6

#612973
b101 #

#615000
1!
1$
1%

#618911
b0 ,

#618960
b10 ,
1.
11
02

#620000
0!
0$
0%

#620206
1+
0.
0/
01
12
13

#625000
1!
1$
1%

#628911
b11 ,

#630000
0!
0$
0%

#630206
0+
1.
1/
11
02
03

#635000
1!
1$
1%

#638911
b10 ,

#638960
b0 ,
0.
01
12

#640000
0!
0$
0%

#640206
1+
0/
02
13

#640758
b100 ,
11

#645000
1!
1$
1%

#648911
b101 ,

#650000
0!
0$
0%

#650206
0+
1/
12
03

#655000
1!
1$
1%

#658911
b100 ,

#658960
b110 ,
1-
1.
10
01
02

#660000
0!
0$
0%

#660206
1+
0-
0.
0/
00
11
12
13

#665000
1!
1$
1%

#668911
b111 ,

#670000
0!
0$
0%

#670206
0+
1-
1.
1/
10
01
02
03

#675000
1!
1$
1%

#678911
b110 ,

#678960
b100 ,
0-
0.
00
11
12

#679509
b1100 ,
10

#680000
0!
0$
0%

#680206
1+
0/
02
13

#680758
b1000 ,
01

#685000
1!
1$
1%

#688911
b1001 ,

#690000
0!
0$
0%

#690153
14

#690206
0+
1/
12
03

#690857
1*

#695000
1!
1$
1%

#698911
b1000 ,

#699509
b0 ,
00

#699823
1(

#700000
0!
0$
0%

#700153
04

#700206
1+
0/
02
13

#700857
0*

#705000
1!
1$
1%

#708911
b100 )
b1 ,

#708960
b110 )

#709823
0(

#710000
0!
0$
0%

#710206
0+
1/
12
03

#711043
b111 #

#711176
b100 6

#712016
b101 6

#712245
b111 6

#712973
b110 #

#715000
1!
1$
1%

#718911
b0 ,

#718960
b10 ,
1.
11
02

#720000
0!
0$
0%

#720206
1+
0.
0/
01
12
13

#725000
1!
1$
1%

#728911
b11 ,

#730000
0!
0$
0%

#730206
0+
1.
1/
11
02
03

#735000
1!
1$
1%

#738911
b10 ,

#738960
b0 ,
0.
01
12

#740000
0!
0$
0%

#740206
1+
0/
02
13

#740758
b100 ,
11

#745000
1!
1$
1%

#748911
b101 ,

#750000
0!
0$
0%

#750206
0+
1/
12
03

#755000
1!
1$
1%

#758911
b100 ,

#758960
b110 ,
1-
1.
10
01
02

#760000
0!
0$
0%

#760206
1+
0-
0.
0/
00
11
12
13

#765000
1!
1$
1%

#768911
b111 ,

#770000
0!
0$
0%

#770206
0+
1-
1.
1/
10
01
02
03

#775000
1!
1$
1%

#778911
b110 ,

#778960
b100 ,
0-
0.
00
11
12

#779509
b1100 ,
10

#780000
0!
0$
0%

#780206
1+
0/
02
13

#780758
b1000 ,
01

#785000
1!
1$
1%

#788911
b1001 ,

#790000
0!
0$
0%

#790153
14

#790206
0+
1/
12
03

#790857
1*

#795000
1!
1$
1%

#798911
b1000 ,

#799509
b0 ,
00

#799823
1(

#800000
0!
0$
0%

#800153
04

#800206
1+
0/
02
13

#800857
0*

#805000
1!
1$
1%

#808911
b111 )
b1 ,

#809823
0(

#810000
0!
0$
0%

#810206
0+
1/
12
03

#811176
b101 6

#811249
b1101 6

#811381
b1001 6

#812016
b1000 6

#812973
b111 #

#815000
1!
1$
1%

#818911
b0 ,

#818960
b10 ,
1.
11
02

#820000
0!
0$
0%

#820206
1+
0.
0/
01
12
13

#825000
1!
1$
1%

#828911
b11 ,

#830000
0!
0$
0%

#830206
0+
1.
1/
11
02
03

#835000
1!
1$
1%

#838911
b10 ,

#838960
b0 ,
0.
01
12

#840000
0!
0$
0%

#840206
1+
0/
02
13

#840758
b100 ,
11

#845000
1!
1$
1%

#848911
b101 ,

#850000
0!
0$
0%

#850206
0+
1/
12
03

#855000
1!
1$
1%

#858911
b100 ,

#858960
b110 ,
1-
1.
10
01
02

#860000
0!
0$
0%

#860206
1+
0-
0.
0/
00
11
12
13

#865000
1!
1$
1%

#868911
b111 ,

#870000
0!
0$
0%

#870206
0+
1-
1.
1/
10
01
02
03

#875000
1!
1$
1%

#878911
b110 ,

#878960
b100 ,
0-
0.
00
11
12

#879509
b1100 ,
10

#880000
0!
0$
0%

#880206
1+
0/
02
13

#880758
b1000 ,
01

#885000
1!
1$
1%

#888911
b1001 ,

#890000
0!
0$
0%

#890153
14

#890206
0+
1/
12
03

#890857
1*

#895000
1!
1$
1%

#898911
b1000 ,

#899509
b0 ,
00

#899823
1(

#900000
0!
0$
0%

#900153
04

#900206
1+
0/
02
13

#900857
0*

#905000
1!
1$
1%

#908911
b110 )
b1 ,

#908960
b100 )

#909509
b1100 )

#909823
0(

#910000
0!
0$
0%

#910206
0+
1/
12
03

#910758
b1000 )

#911043
b101 #

#911176
b1010 6

#911249
b10 6

#911381
b110 6

#912016
b111 6

#912245
b101 6

#912875
b1 6

#912973
b100 #

#913949
b1100 #

#914414
b1001 6

#915000
1!
1$
1%

#916204
b1000 #

#918911
b0 ,

#918960
b10 ,
1.
11
02

#920000
0!
0$
0%

#920206
1+
0.
0/
01
12
13

#925000
1!
1$
1%

#928911
b11 ,

#930000
0!
0$
0%

#930206
0+
1.
1/
11
02
03

#935000
1!
1$
1%

#938911
b10 ,

#938960
b0 ,
0.
01
12

#940000
0!
0$
0%

#940206
1+
0/
02
13

#940758
b100 ,
11

#945000
1!
1$
1%

#948911
b101 ,

#950000
0!
0$
0%

#950206
0+
1/
12
03

#955000
1!
1$
1%

#958911
b100 ,

#958960
b110 ,
1-
1.
10
01
02

#960000
0!
0$
0%

#960206
1+
0-
0.
0/
00
11
12
13

#965000
1!
1$
1%

#968911
b111 ,

#970000
0!
0$
0%

#970206
0+
1-
1.
1/
10
01
02
03

#975000
1!
1$
1%

#978911
b110 ,

#978960
b100 ,
0-
0.
00
11
12

#979509
b1100 ,
10

#980000
0!
0$
0%

#980206
1+
0/
02
13

#980758
b1000 ,
01

#985000
1!
1$
1%

#988911
b1001 ,

#990000
0!
0$
0%

#990153
14

#990206
0+
1/
12
03

#990857
1*

#995000
1!
1$
1%

#998911
b1000 ,

#999509
b0 ,
00

#999823
1(

#1000000
0!
0$
0%

#1000153
04

#1000206
1+
0/
02
13

#1000857
0*

#1005000
1!
1$
1%

#1008911
b1001 )
b1 ,

#1009823
0(

#1010000
0!
0$
0%

#1010206
0+
1/
12
03

#1011176
b1011 6

#1012016
b1010 6

#1012973
b1001 #

#1015000
1!
1$
1%

#1018911
b0 ,

#1018960
b10 ,
1.
11
02

#1020000
0!
0$
0%

#1020206
1+
0.
0/
01
12
13

#1025000
1!
1$
1%

#1028911
b11 ,

#1030000
0!
0$
0%

#1030206
0+
1.
1/
11
02
03

#1035000
1!
1$
1%

#1038911
b10 ,

#1038960
b0 ,
0.
01
12

#1040000
0!
0$
0%

#1040206
1+
0/
02
13

#1040758
b100 ,
11

#1045000
1!
1$
1%

#1048911
b101 ,

#1050000
0!
0$
0%

#1050206
0+
1/
12
03

#1055000
1!
1$
1%

#1058911
b100 ,

#1058960
b110 ,
1-
1.
10
01
02

#1060000
0!
0$
0%

#1060206
1+
0-
0.
0/
00
11
12
13

#1065000
1!
1$
1%

#1068911
b111 ,

#1070000
0!
0$
0%

#1070206
0+
1-
1.
1/
10
01
02
03

#1075000
1!
1$
1%

#1078911
b110 ,

#1078960
b100 ,
0-
0.
00
11
12

#1079509
b1100 ,
10

#1080000
0!
0$
0%

#1080206
1+
0/
02
13

#1080758
b1000 ,
01

#1085000
1!
1$
1%

#1088911
b1001 ,

#1090000
0!
0$
0%

#1090153
14

#1090206
0+
1/
12
03

#1090857
1*

#1095000
1!
1$
1%

#1098911
b1000 ,

#1099509
b0 ,
00

#1099823
1(

#1100000
0!
0$
0%

#1100153
04

#1100206
1+
0/
02
13

#1100857
0*

#1105000
1!
1$
1%

#1108911
b1000 )
b1 ,

#1108960
b1010 )

#1109823
0(

#1110000
0!
0$
0%

#1110206
0+
1/
12
03

#1111043
b1011 #

#1111176
b1000 6

#1112016
b1001 6

#1112245
b1011 6

#1112973
b1010 #

#1115000
1!
1$
1%

#1118911
b0 ,

#1118960
b10 ,
1.
11
02

#1120000
0!
0$
0%

#1120206
1+
0.
0/
01
12
13

#1125000
1!
1$
1%

#1128911
b11 ,

#1130000
0!
0$
0%

#1130206
0+
1.
1/
11
02
03

#1135000
1!
1$
1%

#1138911
b10 ,

#1138960
b0 ,
0.
01
12

#1140000
0!
0$
0%

#1140206
1+
0/
02
13

#1140758
b100 ,
11

#1145000
1!
1$
1%

#1148911
b101 ,

#1150000
0!
0$
0%

#1150206
0+
1/
12
03

#1155000
1!
1$
1%

#1158911
b100 ,

#1158960
b110 ,
1-
1.
10
01
02

#1160000
0!
0$
0%

#1160206
1+
0-
0.
0/
00
11
12
13

#1165000
1!
1$
1%

#1168911
b111 ,

#1170000
0!
0$
0%

#1170206
0+
1-
1.
1/
10
01
02
03

#1175000
1!
1$
1%

#1178911
b110 ,

#1178960
b100 ,
0-
0.
00
11
12

#1179509
b1100 ,
10

#1180000
0!
0$
0%

#1180206
1+
0/
02
13

#1180758
b1000 ,
01

#1185000
1!
1$
1%

#1188911
b1001 ,

#1190000
0!
0$
0%

#1190153
14

#1190206
0+
1/
12
03

#1190857
1*

#1195000
1!
1$
1%

#1198911
b1000 ,

#1199509
b0 ,
00

#1199823
1(

#1200000
0!
0$
0%

#1200153
04

#1200206
1+
0/
02
13

#1200857
0*

#1205000
1!
1$
1%

#1208911
b1011 )
b1 ,

#1209823
0(

#1210000
0!
0$
0%

#1210206
0+
1/
12
03

#1211176
b1001 6

#1211381
b1101 6

#1212016
b1100 6

#1212973
b1011 #

#1215000
1!
1$
1%

#1218911
b0 ,

#1218960
b10 ,
1.
11
02

#1220000
0!
0$
0%

#1220206
1+
0.
0/
01
12
13

#1225000
1!
1$
1%

#1228911
b11 ,

#1230000
0!
0$
0%

#1230206
0+
1.
1/
11
02
03

#1235000
1!
1$
1%

#1238911
b10 ,

#1238960
b0 ,
0.
01
12

#1240000
0!
0$
0%

#1240206
1+
0/
02
13

#1240758
b100 ,
11

#1245000
1!
1$
1%

#1248911
b101 ,

#1250000
0!
0$
0%

#1250206
0+
1/
12
03

#1255000
1!
1$
1%

#1258911
b100 ,

#1258960
b110 ,
1-
1.
10
01
02

#1260000
0!
0$
0%

#1260206
1+
0-
0.
0/
00
11
12
13

#1265000
1!
1$
1%

#1268911
b111 ,

#1270000
0!
0$
0%

#1270206
0+
1-
1.
1/
10
01
02
03

#1275000
1!
1$
1%

#1278911
b110 ,

#1278960
b100 ,
0-
0.
00
11
12

#1279509
b1100 ,
10

#1280000
0!
0$
0%

#1280206
1+
0/
02
13

#1280758
b1000 ,
01

#1285000
1!
1$
1%

#1288911
b1001 ,

#1290000
0!
0$
0%

#1290153
14

#1290206
0+
1/
12
03

#1290857
1*

#1295000
1!
1$
1%

#1298911
b1000 ,

#1299509
b0 ,
00

#1299823
1(

#1300000
0!
0$
0%

#1300153
04

#1300206
1+
0/
02
13

#1300857
0*

#1305000
1!
1$
1%

#1308911
b1010 )
b1 ,

#1308960
b1000 )

#1309823
0(

#1310000
0!
0$
0%

#1310206
0+
1/
12
03

#1310758
b1100 )

#1311043
b1001 #

#1311176
b1110 6

#1311381
b1010 6

#1312016
b1011 6

#1312245
b1001 6

#1312875
b1101 6

#1312973
b1000 #

#1315000
1!
1$
1%

#1316204
b1100 #

#1318911
b0 ,

#1318960
b10 ,
1.
11
02

#1320000
0!
0$
0%

#1320206
1+
0.
0/
01
12
13

#1325000
1!
1$
1%

#1328911
b11 ,

#1330000
0!
0$
0%

#1330206
0+
1.
1/
11
02
03

#1335000
1!
1$
1%

#1338911
b10 ,

#1338960
b0 ,
0.
01
12

#1340000
0!
0$
0%

#1340206
1+
0/
02
13

#1340758
b100 ,
11

#1345000
1!
1$
1%

#1348911
b101 ,

#1350000
0!
0$
0%

#1350206
0+
1/
12
03

#1355000
1!
1$
1%

#1358911
b100 ,

#1358960
b110 ,
1-
1.
10
01
02

#1360000
0!
0$
0%

#1360206
1+
0-
0.
0/
00
11
12
13

#1365000
1!
1$
1%

#1368911
b111 ,

#1370000
0!
0$
0%

#1370206
0+
1-
1.
1/
10
01
02
03

#1375000
1!
1$
1%

#1378911
b110 ,

#1378960
b100 ,
0-
0.
00
11
12

#1379509
b1100 ,
10

#1380000
0!
0$
0%

#1380206
1+
0/
02
13

#1380758
b1000 ,
01

#1385000
1!
1$
1%

#1388911
b1001 ,

#1390000
0!
0$
0%

#1390153
14

#1390206
0+
1/
12
03

#1390857
1*

#1395000
1!
1$
1%

#1398911
b1000 ,

#1399509
b0 ,
00

#1399823
1(

#1400000
0!
0$
0%

#1400153
04

#1400206
1+
0/
02
13

#1400857
0*

#1405000
1!
1$
1%

#1408911
b1101 )
b1 ,

#1409823
0(

#1410000
0!
0$
0%

#1410206
0+
1/
12
03

#1411176
b1111 6

#1412016
b1110 6

#1412973
b1101 #

#1415000
1!
1$
1%

#1418911
b0 ,

#1418960
b10 ,
1.
11
02

#1420000
0!
0$
0%

#1420206
1+
0.
0/
01
12
13

#1425000
1!
1$
1%

#1428911
b11 ,

#1430000
0!
0$
0%

#1430206
0+
1.
1/
11
02
03

#1435000
1!
1$
1%

#1438911
b10 ,

#1438960
b0 ,
0.
01
12

#1440000
0!
0$
0%

#1440206
1+
0/
02
13

#1440758
b100 ,
11

#1445000
1!
1$
1%

#1448911
b101 ,

#1450000
0!
0$
0%

#1450206
0+
1/
12
03

#1455000
1!
1$
1%

#1458911
b100 ,

#1458960
b110 ,
1-
1.
10
01
02

#1460000
0!
0$
0%

#1460206
1+
0-
0.
0/
00
11
12
13

#1465000
1!
1$
1%

#1468911
b111 ,

#1470000
0!
0$
0%

#1470206
0+
1-
1.
1/
10
01
02
03

#1475000
1!
1$
1%

#1478911
b110 ,

#1478960
b100 ,
0-
0.
00
11
12

#1479509
b1100 ,
10

#1480000
0!
0$
0%

#1480206
1+
0/
02
13

#1480758
b1000 ,
01

#1485000
1!
1$
1%

#1488911
b1001 ,

#1490000
0!
0$
0%

#1490153
14

#1490206
0+
1/
12
03

#1490857
1*

#1495000
1!
1$
1%

#1498911
b1000 ,

#1499509
b0 ,
00

#1499823
1(

#1500000
0!
0$
0%

#1500153
04

#1500206
1+
0/
02
13

#1500857
0*

#1505000
1!
1$
1%

#1508911
b1100 )
b1 ,

#1508960
b1110 )

#1509823
0(

#1510000
0!
0$
0%

#1510206
0+
1/
12
03

#1511043
b1111 #

#1511176
b1100 6

#1512016
b1101 6

#1512245
b1111 6

#1512973
b1110 #

#1515000
1!
1$
1%

#1518911
b0 ,

#1518960
b10 ,
1.
11
02

#1520000
0!
0$
0%

#1520206
1+
0.
0/
01
12
13

#1525000
1!
1$
1%

#1528911
b11 ,

#1530000
0!
0$
0%

#1530206
0+
1.
1/
11
02
03

#1535000
1!
1$
1%

#1538911
b10 ,

#1538960
b0 ,
0.
01
12

#1540000
0!
0$
0%

#1540206
1+
0/
02
13

#1540758
b100 ,
11

#1545000
1!
1$
1%

#1548911
b101 ,

#1550000
0!
0$
0%

#1550206
0+
1/
12
03

#1555000
1!
1$
1%

#1558911
b100 ,

#1558960
b110 ,
1-
1.
10
01
02

#1560000
0!
0$
0%

#1560206
1+
0-
0.
0/
00
11
12
13

#1565000
1!
1$
1%

#1568911
b111 ,

#1570000
0!
0$
0%

#1570206
0+
1-
1.
1/
10
01
02
03

#1575000
1!
1$
1%

#1578911
b110 ,

#1578960
b100 ,
0-
0.
00
11
12

#1579509
b1100 ,
10

#1580000
0!
0$
0%

#1580206
1+
0/
02
13

#1580758
b1000 ,
01

#1585000
1!
1$
1%

#1588911
b1001 ,

#1590000
0!
0$
0%

#1590153
14

#1590206
0+
1/
12
03

#1590857
1*

#1595000
1!
1$
1%

#1598911
b1000 ,

#1599509
b0 ,
00

#1599823
1(

#1600000
0!
0$
0%

#1600153
04

#1600206
1+
0/
02
13

#1600857
0*

#1605000
1!
1$
1%

#1608911
b1111 )
b1 ,

#1609823
0(

#1610000
0!
0$
0%

#1610206
0+
1/
12
03

#1611176
b1101 6

#1611249
b101 6

#1611381
b1 6

#1612016
b0 6

#1612973
b1111 #

#1615000
1!
1$
1%

#1618911
b0 ,

#1618960
b10 ,
1.
11
02

#1620000
0!
0$
0%

#1620206
1+
0.
0/
01
12
13

#1625000
1!
1$
1%

#1628911
b11 ,

#1630000
0!
0$
0%

#1630206
0+
1.
1/
11
02
03

#1635000
1!
1$
1%

#1638911
b10 ,

#1638960
b0 ,
0.
01
12

#1640000
0!
0$
0%

#1640206
1+
0/
02
13

#1640758
b100 ,
11

#1645000
1!
1$
1%

#1648911
b101 ,

#1650000
0!
0$
0%

#1650206
0+
1/
12
03

#1655000
1!
1$
1%

#1658911
b100 ,

#1658960
b110 ,
1-
1.
10
01
02

#1660000
0!
0$
0%

#1660206
1+
0-
0.
0/
00
11
12
13

#1665000
1!
1$
1%

#1668911
b111 ,

#1670000
0!
0$
0%

#1670206
0+
1-
1.
1/
10
01
02
03

#1675000
1!
1$
1%

#1678911
b110 ,

#1678960
b100 ,
0-
0.
00
11
12

#1679509
b1100 ,
10

#1680000
0!
0$
0%

#1680206
1+
0/
02
13

#1680758
b1000 ,
01

#1685000
1!
1$
1%

#1688911
b1001 ,

#1690000
0!
0$
0%

#1690153
14

#1690206
0+
1/
12
03

#1690857
1*

#1695000
1!
1$
1%

#1698911
b1000 ,

#1699509
b0 ,
00

#1699823
1(

#1700000
0!
0$
0%

#1700153
04

#1700206
1+
0/
02
13

#1700857
0*

#1705000
1!
1$
1%

#1708911
b1110 )
b1 ,

#1708960
b1100 )

#1709509
b100 )

#1709823
0(

#1710000
0!
0$
0%

#1710206
0+
1/
12
03

#1710758
b0 )

#1711043
b1101 #

#1711176
b10 6

#1711249
b1010 6

#1711381
b1110 6

#1712016
b1111 6

#1712245
b1101 6

#1712875
b1001 6

#1712973
b1100 #

#1713949
b100 #

#1714414
b1 6

#1715000
1!
1$
1%

#1716204
b0 #

#1718911
b0 ,

#1718960
b10 ,
1.
11
02

#1720000
0!
0$
0%

#1720206
1+
0.
0/
01
12
13

#1725000
1!
1$
1%

#1728911
b11 ,

#1730000
0!
0$
0%

#1730206
0+
1.
1/
11
02
03

#1735000
1!
1$
1%

#1738911
b10 ,

#1738960
b0 ,
0.
01
12

#1740000
0!
0$
0%

#1740206
1+
0/
02
13

#1740758
b100 ,
11

#1745000
1!
1$
1%

#1748911
b101 ,

#1750000
0!
0$
0%

#1750206
0+
1/
12
03

#1755000
1!
1$
1%

#1758911
b100 ,

#1758960
b110 ,
1-
1.
10
01
02

#1760000
0!
0$
0%

#1760206
1+
0-
0.
0/
00
11
12
13

#1765000
1!
1$
1%

#1768911
b111 ,

#1770000
0!
0$
0%

#1770206
0+
1-
1.
1/
10
01
02
03

#1775000
1!
1$
1%

#1778911
b110 ,

#1778960
b100 ,
0-
0.
00
11
12

#1779509
b1100 ,
10

#1780000
0!
0$
0%

#1780206
1+
0/
02
13

#1780758
b1000 ,
01

#1785000
1!
1$
1%

#1788911
b1001 ,

#1790000
0!
0$
0%

#1790153
14

#1790206
0+
1/
12
03

#1790857
1*

#1795000
1!
1$
1%

#1798911
b1000 ,

#1799509
b0 ,
00

#1799823
1(

#1800000
0!
0$
0%

#1800153
04

#1800206
1+
0/
02
13

#1800857
0*

#1805000
1!
1$
1%

#1808911
b1 )
b1 ,

#1809823
0(

#1810000
0!
0$
0%

#1810206
0+
1/
12
03

#1811176
b11 6

#1812016
b10 6

#1812973
b1 #

#1815000
1!
1$
1%

#1818911
b0 ,

#1818960
b10 ,
1.
11
02

#1820000
0!
0$
0%

#1820206
1+
0.
0/
01
12
13

#1825000
1!
1$
1%

#1828911
b11 ,

