outputs/wave_first.vcd
$date
   Wed Oct 16 13:14:18 2024
$end

$version
  2023.2.2
  $dumpfile ("waveform.vcd") 
$end

$timescale
  1ps
$end

$scope module tb_counter $end
$var reg 1 ! tb_clk $end
$var reg 1 " tb_rst $end
$var wire 4 # tb_led [3:0] $end
$scope module dut $end
$var wire 1 $ i_clk $end
$var wire 1 % i_clk_IBUF $end
$var wire 1 & i_rst $end
$var wire 1 ' i_rst_IBUF $end
$var wire 1 ( o_pulse $end
$var wire 4 # ov_led [3:0] $end
$var wire 4 ) ov_led_OBUF [3:0] $end
$scope module CLOCK_ENABLE_GEN $end
$var wire 1 ( E [0:0] $end
$var wire 1 ' SR [0:0] $end
$var wire 1 * \count[0]_i_1__0_n_0  $end
$var wire 1 + \count[0]_i_3_n_0  $end
$var wire 4 , count_reg [3:0] $end
$var wire 1 - \count_reg[0]_i_2_n_1  $end
$var wire 1 . \count_reg[0]_i_2_n_2  $end
$var wire 1 / \count_reg[0]_i_2_n_3  $end
$var wire 1 0 \count_reg[0]_i_2_n_4  $end
$var wire 1 1 \count_reg[0]_i_2_n_5  $end
$var wire 1 2 \count_reg[0]_i_2_n_6  $end
$var wire 1 3 \count_reg[0]_i_2_n_7  $end
$var wire 1 % i_clk_IBUF $end
$var wire 1 4 o_pulse_i_1_n_0 $end
$var wire 1 5 \NLW_count_reg[0]_i_2_CO_UNCONNECTED  [0:0] $end
$upscope $end
$scope module COUNTER $end
$var wire 1 ( E [0:0] $end
$var wire 4 ) Q [3:0] $end
$var wire 1 ' SR [0:0] $end
$var wire 1 % i_clk_IBUF $end
$var wire 4 6 plusOp [3:0] $end
$upscope $end
$upscope $end
$upscope $end
$enddefinitions $end

#0
$dumpvars
0!
1"
bx #
0$
0%
1&
1'
x(
bx )
x*
x+
bx ,
x-
x.
x/
x0
x1
x2
x3
x4
x5
bx 6
$end

#100
0(
b0 )
b0 ,
0-
0.
00
01
05

#894
bx0xx 6

#989
1+
0/
02
13

#1129
04

#1133
bx0x1 6

#1193
b0x1 6

#2179
bx0x #

#2952
1*

#3197
b1 6

#3428
bx00x #

#3443
b0x #

#4756
b0 #

#5000
1!
1$
1%

#10000
0!
0$
0%

#15000
1!
1$
1%

#20000
0!
0$
0%

#25000
1!
0"
1$
1%
0&
0'

#27952
0*

#30000
0!
0$
0%

#35000
1!
1$
1%

#40000
0!
0$
0%

#45000
1!
1$
1%

#50000
0!
0$
0%

#55000
1!
1$
1%

#60000
0!
0$
0%

#65000
1!
1$
1%

#70000
0!
0$
0%

#75000
1!
1$
1%

#80000
0!
0$
0%

#85000
1!
1$
1%

#90000
0!
0$
0%

#95000
1!
1$
1%

#100000
0!
0$
0%

#105000
1!
1$
1%

#107648
b1 ,

#108537
0+
1/
12
03

#110000
0!
0$
0%

#115000
1!
1$
1%

#117458
b11 ,
1.
11
02

#117648
b10 ,

#118537
1+
0.
0/
01
12
13

#120000
0!
0$
0%

#125000
1!
1$
1%

#127648
b11 ,

#128537
0+
1.
1/
11
02
03

#130000
0!
0$
0%

#135000
1!
1$
1%

#137458
b101 ,
0-
0.
00
11
12

#137648
b100 ,

#138537
1+
0/
02
13

#140000
0!
0$
0%

#145000
1!
1$
1%

#147648
b101 ,

#148537
0+
1/
12
03

#150000
0!
0$
0%

#155000
1!
1$
1%

#157458
b111 ,
1-
1.
10
01
02

#157648
b110 ,

#158537
1+
0-
0.
0/
00
11
12
13

#160000
0!
0$
0%

#165000
1!
1$
1%

#167648
b111 ,

#168537
0+
1-
1.
1/
10
01
02
03

#170000
0!
0$
0%

#175000
1!
1$
1%

#177458
b1 ,
0-
0.
00
01
12

#177503
b1001 ,
10

#177648
b1000 ,

#178537
1+
0/
02
13

#180000
0!
0$
0%

#185000
1!
1$
1%

#187648
b1001 ,

#188460
1*

#188537
0+
1/
12
03

#188677
14

#190000
0!
0$
0%

#195000
1!
1$
1%

#197503
b1 ,
00

#197600
1(

#197648
b0 ,

#198060
0*

#198537
1+
0/
02
13

#198677
04

#200000
0!
0$
0%

#205000
1!
1$
1%

#207600
0(

#207648
b1 )
b1 ,

#208537
0+
1/
12
03

#208681
b0 6

#210000
0!
0$
0%

#210745
b10 6

#212304
b1 #

#215000
1!
1$
1%

#217458
b11 ,
1.
11
02

#217648
b10 ,

#218537
1+
0.
0/
01
12
13

#220000
0!
0$
0%

#225000
1!
1$
1%

#227648
b11 ,

#228537
0+
1.
1/
11
02
03

#230000
0!
0$
0%

#235000
1!
1$
1%

#237458
b101 ,
0-
0.
00
11
12

#237648
b100 ,

#238537
1+
0/
02
13

#240000
0!
0$
0%

#245000
1!
1$
1%

#247648
b101 ,

#248537
0+
1/
12
03

#250000
0!
0$
0%

#255000
1!
1$
1%

#257458
b111 ,
1-
1.
10
01
02

#257648
b110 ,

#258537
1+
0-
0.
0/
00
11
12
13

#260000
0!
0$
0%

#265000
1!
1$
1%

#267648
b111 ,

#268537
0+
1-
1.
1/
10
01
02
03

#270000
0!
0$
0%

#275000
1!
1$
1%

#277458
b1 ,
0-
0.
00
01
12

#277503
b1001 ,
10

#277648
b1000 ,

#278537
1+
0/
02
13

#280000
0!
0$
0%

#285000
1!
1$
1%

#287648
b1001 ,

#288460
1*

#288537
0+
1/
12
03

#288677
14

#290000
0!
0$
0%

#295000
1!
1$
1%

#297503
b1 ,
00

#297600
1(

#297648
b0 ,

#298060
0*

#298537
1+
0/
02
13

#298677
04

#300000
0!
0$
0%

#305000
1!
1$
1%

#307458
b11 )

#307600
0(

#307648
b10 )
b1 ,

#307886
b0 6

#308537
0+
1/
12
03

#308681
b1 6

#309537
b11 #

#310000
0!
0$
0%

#310745
b11 6

#312304
b10 #

#315000
1!
1$
1%

#317458
b11 ,
1.
11
02

#317648
b10 ,

#318537
1+
0.
0/
01
12
13

#320000
0!
0$
0%

#325000
1!
1$
1%

#327648
b11 ,

#328537
0+
1.
1/
11
02
03

#330000
0!
0$
0%

#335000
1!
1$
1%

#337458
b101 ,
0-
0.
00
11
12

#337648
b100 ,

#338537
1+
0/
02
13

#340000
0!
0$
0%

#345000
1!
1$
1%

#347648
b101 ,

#348537
0+
1/
12
03

#350000
0!
0$
0%

#355000
1!
1$
1%

#357458
b111 ,
1-
1.
10
01
02

#357648
b110 ,

#358537
1+
0-
0.
0/
00
11
12
13

#360000
0!
0$
0%

#365000
1!
1$
1%

#367648
b111 ,

#368537
0+
1-
1.
1/
10
01
02
03

#370000
0!
0$
0%

#375000
1!
1$
1%

#377458
b1 ,
0-
0.
00
01
12

#377503
b1001 ,
10

#377648
b1000 ,

#378537
1+
0/
02
13

#380000
0!
0$
0%

#385000
1!
1$
1%

#387648
b1001 ,

#388460
1*

#388537
0+
1/
12
03

#388677
14

#390000
0!
0$
0%

#395000
1!
1$
1%

#397503
b1 ,
00

#397600
1(

#397648
b0 ,

#398060
0*

#398537
1+
0/
02
13

#398677
04

#400000
0!
0$
0%

#405000
1!
1$
1%

#407600
0(

#407648
b11 )
b1 ,

#408442
b111 6

#408537
0+
1/
12
03

#408681
b110 6

#410000
0!
0$
0%

#410745
b100 6

#412304
b11 #

#415000
1!
1$
1%

#417458
b11 ,
1.
11
02

#417648
b10 ,

#418537
1+
0.
0/
01
12
13

#420000
0!
0$
0%

#425000
1!
1$
1%

#427648
b11 ,

#428537
0+
1.
1/
11
02
03

#430000
0!
0$
0%

#435000
1!
1$
1%

#437458
b101 ,
0-
0.
00
11
12

#437648
b100 ,

#438537
1+
0/
02
13

#440000
0!
0$
0%

#445000
1!
1$
1%

#447648
b101 ,

#448537
0+
1/
12
03

#450000
0!
0$
0%

#455000
1!
1$
1%

#457458
b111 ,
1-
1.
10
01
02

#457648
b110 ,

#458537
1+
0-
0.
0/
00
11
12
13

#460000
0!
0$
0%

#465000
1!
1$
1%

#467648
b111 ,

#468537
0+
1-
1.
1/
10
01
02
03

#470000
0!
0$
0%

#475000
1!
1$
1%

#477458
b1 ,
0-
0.
00
01
12

#477503
b1001 ,
10

#477648
b1000 ,

#478537
1+
0/
02
13

#480000
0!
0$
0%

#485000
1!
1$
1%

#487648
b1001 ,

#488460
1*

#488537
0+
1/
12
03

#488677
14

#490000
0!
0$
0%

#495000
1!
1$
1%

#497503
b1 ,
00

#497600
1(

#497648
b0 ,

#498060
0*

#498537
1+
0/
02
13

#498677
04

#500000
0!
0$
0%

#505000
1!
1$
1%

#507458
b101 )

#507600
0(

#507648
b100 )
b1 ,

#507884
b0 6

#507886
b10 6

#508442
b110 6

#508537
0+
1/
12
03

#508681
b111 6

#509537
b1 #

#510000
0!
0$
0%

#510745
b101 6

#510786
b101 #

#512304
b100 #

#515000
1!
1$
1%

#517458
b11 ,
1.
11
02

#517648
b10 ,

#518537
1+
0.
0/
01
12
13

#520000
0!
0$
0%

#525000
1!
1$
1%

#527648
b11 ,

#528537
0+
1.
1/
11
02
03

#530000
0!
0$
0%

#535000
1!
1$
1%

#537458
b101 ,
0-
0.
00
11
12

#537648
b100 ,

#538537
1+
0/
02
13

#540000
0!
0$
0%

#545000
1!
1$
1%

#547648
b101 ,

#548537
0+
1/
12
03

#550000
0!
0$
0%

#555000
1!
1$
1%

#557458
b111 ,
1-
1.
10
01
02

#557648
b110 ,

#558537
1+
0-
0.
0/
00
11
12
13

#560000
0!
0$
0%

#565000
1!
1$
1%

#567648
b111 ,

#568537
0+
1-
1.
1/
10
01
02
03

#570000
0!
0$
0%

#575000
1!
1$
1%

#577458
b1 ,
0-
0.
00
01
12

#577503
b1001 ,
10

#577648
b1000 ,

#578537
1+
0/
02
13

#580000
0!
0$
0%

#585000
1!
1$
1%

#587648
b1001 ,

#588460
1*

#588537
0+
1/
12
03

#588677
14

#590000
0!
0$
0%

#595000
1!
1$
1%

#597503
b1 ,
00

#597600
1(

#597648
b0 ,

#598060
0*

#598537
1+
0/
02
13

#598677
04

#600000
0!
0$
0%

#605000
1!
1$
1%

#607600
0(

#607648
b101 )
b1 ,

#608537
0+
1/
12
03

#608681
b100 6

#610000
0!
0$
0%

#610745
b110 6

#612304
b101 #

#615000
1!
1$
1%

#617458
b11 ,
1.
11
02

#617648
b10 ,

#618537
1+
0.
0/
01
12
13

#620000
0!
0$
0%

#625000
1!
1$
1%

#627648
b11 ,

#628537
0+
1.
1/
11
02
03

#630000
0!
0$
0%

#635000
1!
1$
1%

#637458
b101 ,
0-
0.
00
11
12

#637648
b100 ,

#638537
1+
0/
02
13

#640000
0!
0$
0%

#645000
1!
1$
1%

#647648
b101 ,

#648537
0+
1/
12
03

#650000
0!
0$
0%

#655000
1!
1$
1%

#657458
b111 ,
1-
1.
10
01
02

#657648
b110 ,

#658537
1+
0-
0.
0/
00
11
12
13

#660000
0!
0$
0%

#665000
1!
1$
1%

#667648
b111 ,

#668537
0+
1-
1.
1/
10
01
02
03

#670000
0!
0$
0%

#675000
1!
1$
1%

#677458
b1 ,
0-
0.
00
01
12

#677503
b1001 ,
10

#677648
b1000 ,

#678537
1+
0/
02
13

#680000
0!
0$
0%

#685000
1!
1$
1%

#687648
b1001 ,

#688460
1*

#688537
0+
1/
12
03

#688677
14

#690000
0!
0$
0%

#695000
1!
1$
1%

#697503
b1 ,
00

#697600
1(

#697648
b0 ,

#698060
0*

#698537
1+
0/
02
13

#698677
04

#700000
0!
0$
0%

#705000
1!
1$
1%

#707458
b111 )

#707600
0(

#707648
b110 )
b1 ,

#707886
b100 6

#708537
0+
1/
12
03

#708681
b101 6

#709537
b111 #

#710000
0!
0$
0%

#710745
b111 6

#712304
b110 #

#715000
1!
1$
1%

#717458
b11 ,
1.
11
02

#717648
b10 ,

#718537
1+
0.
0/
01
12
13

#720000
0!
0$
0%

#725000
1!
1$
1%

#727648
b11 ,

#728537
0+
1.
1/
11
02
03

#730000
0!
0$
0%

#735000
1!
1$
1%

#737458
b101 ,
0-
0.
00
11
12

#737648
b100 ,

#738537
1+
0/
02
13

#740000
0!
0$
0%

#745000
1!
1$
1%

#747648
b101 ,

#748537
0+
1/
12
03

#750000
0!
0$
0%

#755000
1!
1$
1%

#757458
b111 ,
1-
1.
10
01
02

#757648
b110 ,

#758537
1+
0-
0.
0/
00
11
12
13

#760000
0!
0$
0%

#765000
1!
1$
1%

#767648
b111 ,

#768537
0+
1-
1.
1/
10
01
02
03

#770000
0!
0$
0%

#775000
1!
1$
1%

#777458
b1 ,
0-
0.
00
01
12

#777503
b1001 ,
10

#777648
b1000 ,

#778537
1+
0/
02
13

#780000
0!
0$
0%

#785000
1!
1$
1%

#787648
b1001 ,

#788460
1*

#788537
0+
1/
12
03

#788677
14

#790000
0!
0$
0%

#795000
1!
1$
1%

#797503
b1 ,
00

#797600
1(

#797648
b0 ,

#798060
0*

#798537
1+
0/
02
13

#798677
04

#800000
0!
0$
0%

#805000
1!
1$
1%

#807600
0(

#807648
b111 )
b1 ,

#808060
b1111 6

#808442
b1011 6

#808537
0+
1/
12
03

#808681
b1010 6

#810000
0!
0$
0%

#810745
b1000 6

#812304
b111 #

#815000
1!
1$
1%

#817458
b11 ,
1.
11
02

#817648
b10 ,

#818537
1+
0.
0/
01
12
13

#820000
0!
0$
0%

#825000
1!
1$
1%

#827648
b11 ,

#828537
0+
1.
1/
11
02
03

#830000
0!
0$
0%

#835000
1!
1$
1%

#837458
b101 ,
0-
0.
00
11
12

#837648
b100 ,

#838537
1+
0/
02
13

#840000
0!
0$
0%

#845000
1!
1$
1%

#847648
b101 ,

#848537
0+
1/
12
03

#850000
0!
0$
0%

#855000
1!
1$
1%

#857458
b111 ,
1-
1.
10
01
02

#857648
b110 ,

#858537
1+
0-
0.
0/
00
11
12
13

#860000
0!
0$
0%

#865000
1!
1$
1%

#867648
b111 ,

#868537
0+
1-
1.
1/
10
01
02
03

#870000
0!
0$
0%

#875000
1!
1$
1%

#877458
b1 ,
0-
0.
00
01
12

#877503
b1001 ,
10

#877648
b1000 ,

#878537
1+
0/
02
13

#880000
0!
0$
0%

#885000
1!
1$
1%

#887648
b1001 ,

#888460
1*

#888537
0+
1/
12
03

#888677
14

#890000
0!
0$
0%

#895000
1!
1$
1%

#897503
b1 ,
00

#897600
1(

#897648
b0 ,

#898060
0*

#898537
1+
0/
02
13

#898677
04

#900000
0!
0$
0%

#905000
1!
1$
1%

#907458
b1 )

#907503
b1001 )

#907600
0(

#907648
b1000 )
b1 ,

#907884
b1100 6

#907886
b1110 6

#908060
b110 6

#908442
b10 6

#908537
0+
1/
12
03

#908596
b1010 6

#908681
b1011 6

#909537
b101 #

#910000
0!
0$
0%

#910745
b1001 6

#910786
b1 #

#910846
b1001 #

#912304
b1000 #

#915000
1!
1$
1%

#917458
b11 ,
1.
11
02

#917648
b10 ,

#918537
1+
0.
0/
01
12
13

#920000
0!
0$
0%

#925000
1!
1$
1%

#927648
b11 ,

#928537
0+
1.
1/
11
02
03

#930000
0!
0$
0%

#935000
1!
1$
1%

#937458
b101 ,
0-
0.
00
11
12

#937648
b100 ,

#938537
1+
0/
02
13

#940000
0!
0$
0%

#945000
1!
1$
1%

#947648
b101 ,

#948537
0+
1/
12
03

#950000
0!
0$
0%

#955000
1!
1$
1%

#957458
b111 ,
1-
1.
10
01
02

#957648
b110 ,

#958537
1+
0-
0.
0/
00
11
12
13

#960000
0!
0$
0%

#965000
1!
1$
1%

#967648
b111 ,

#968537
0+
1-
1.
1/
10
01
02
03

#970000
0!
0$
0%

#975000
1!
1$
1%

#977458
b1 ,
0-
0.
00
01
12

#977503
b1001 ,
10

#977648
b1000 ,

#978537
1+
0/
02
13

#980000
0!
0$
0%

#985000
1!
1$
1%

#987648
b1001 ,

#988460
1*

#988537
0+
1/
12
03

#988677
14

#990000
0!
0$
0%

#995000
1!
1$
1%

#997503
b1 ,
00

#997600
1(

#997648
b0 ,

#998060
0*

#998537
1+
0/
02
13

#998677
04

#1000000
0!
0$
0%

#1005000
1!
1$
1%

#1007600
0(

#1007648
b1001 )
b1 ,

#1008537
0+
1/
12
03

#1008681
b1000 6

#1010000
0!
0$
0%

#1010745
b1010 6

#1012304
b1001 #

#1015000
1!
1$
1%

#1017458
b11 ,
1.
11
02

#1017648
b10 ,

#1018537
1+
0.
0/
01
12
13

#1020000
0!
0$
0%

#1025000
1!
1$
1%

#1027648
b11 ,

#1028537
0+
1.
1/
11
02
03

#1030000
0!
0$
0%

#1035000
1!
1$
1%

#1037458
b101 ,
0-
0.
00
11
12

#1037648
b100 ,

#1038537
1+
0/
02
13

#1040000
0!
0$
0%

#1045000
1!
1$
1%

#1047648
b101 ,

#1048537
0+
1/
12
03

#1050000
0!
0$
0%

#1055000
1!
1$
1%

#1057458
b111 ,
1-
1.
10
01
02

#1057648
b110 ,

#1058537
1+
0-
0.
0/
00
11
12
13

#1060000
0!
0$
0%

#1065000
1!
1$
1%

#1067648
b111 ,

#1068537
0+
1-
1.
1/
10
01
02
03

#1070000
0!
0$
0%

#1075000
1!
1$
1%

#1077458
b1 ,
0-
0.
00
01
12

#1077503
b1001 ,
10

#1077648
b1000 ,

#1078537
1+
0/
02
13

#1080000
0!
0$
0%

#1085000
1!
1$
1%

#1087648
b1001 ,

#1088460
1*

#1088537
0+
1/
12
03

#1088677
14

#1090000
0!
0$
0%

#1095000
1!
1$
1%

#1097503
b1 ,
00

#1097600
1(

#1097648
b0 ,

#1098060
0*

#1098537
1+
0/
02
13

#1098677
04

#1100000
0!
0$
0%

#1105000
1!
1$
1%

#1107458
b1011 )

#1107600
0(

#1107648
b1010 )
b1 ,

#1107886
b1000 6

#1108537
0+
1/
12
03

#1108681
b1001 6

#1109537
b1011 #

#1110000
0!
0$
0%

#1110745
b1011 6

#1112304
b1010 #

#1115000
1!
1$
1%

#1117458
b11 ,
1.
11
02

#1117648
b10 ,

#1118537
1+
0.
0/
01
12
13

#1120000
0!
0$
0%

#1125000
1!
1$
1%

#1127648
b11 ,

#1128537
0+
1.
1/
11
02
03

#1130000
0!
0$
0%

#1135000
1!
1$
1%

#1137458
b101 ,
0-
0.
00
11
12

#1137648
b100 ,

#1138537
1+
0/
02
13

#1140000
0!
0$
0%

#1145000
1!
1$
1%

#1147648
b101 ,

#1148537
0+
1/
12
03

#1150000
0!
0$
0%

#1155000
1!
1$
1%

#1157458
b111 ,
1-
1.
10
01
02

#1157648
b110 ,

#1158537
1+
0-
0.
0/
00
11
12
13

#1160000
0!
0$
0%

#1165000
1!
1$
1%

#1167648
b111 ,

#1168537
0+
1-
1.
1/
10
01
02
03

#1170000
0!
0$
0%

#1175000
1!
1$
1%

#1177458
b1 ,
0-
0.
00
01
12

#1177503
b1001 ,
10

#1177648
b1000 ,

#1178537
1+
0/
02
13

#1180000
0!
0$
0%

#1185000
1!
1$
1%

#1187648
b1001 ,

#1188460
1*

#1188537
0+
1/
12
03

#1188677
14

#1190000
0!
0$
0%

#1195000
1!
1$
1%

#1197503
b1 ,
00

#1197600
1(

#1197648
b0 ,

#1198060
0*

#1198537
1+
0/
02
13

#1198677
04

#1200000
0!
0$
0%

#1205000
1!
1$
1%

#1207600
0(

#1207648
b1011 )
b1 ,

#1208442
b1111 6

#1208537
0+
1/
12
03

#1208681
b1110 6

#1210000
0!
0$
0%

#1210745
b1100 6

#1212304
b1011 #

#1215000
1!
1$
1%

#1217458
b11 ,
1.
11
02

#1217648
b10 ,

#1218537
1+
0.
0/
01
12
13

#1220000
0!
0$
0%

#1225000
1!
1$
1%

#1227648
b11 ,

#1228537
0+
1.
1/
11
02
03

#1230000
0!
0$
0%

#1235000
1!
1$
1%

#1237458
b101 ,
0-
0.
00
11
12

#1237648
b100 ,

#1238537
1+
0/
02
13

#1240000
0!
0$
0%

#1245000
1!
1$
1%

#1247648
b101 ,

#1248537
0+
1/
12
03

#1250000
0!
0$
0%

#1255000
1!
1$
1%

#1257458
b111 ,
1-
1.
10
01
02

#1257648
b110 ,

#1258537
1+
0-
0.
0/
00
11
12
13

#1260000
0!
0$
0%

#1265000
1!
1$
1%

#1267648
b111 ,

#1268537
0+
1-
1.
1/
10
01
02
03

#1270000
0!
0$
0%

#1275000
1!
1$
1%

#1277458
b1 ,
0-
0.
00
01
12

#1277503
b1001 ,
10

#1277648
b1000 ,

#1278537
1+
0/
02
13

#1280000
0!
0$
0%

#1285000
1!
1$
1%

#1287648
b1001 ,

#1288460
1*

#1288537
0+
1/
12
03

#1288677
14

#1290000
0!
0$
0%

#1295000
1!
1$
1%

#1297503
b1 ,
00

#1297600
1(

#1297648
b0 ,

#1298060
0*

#1298537
1+
0/
02
13

#1298677
04

#1300000
0!
0$
0%

#1305000
1!
1$
1%

#1307458
b1101 )

#1307600
0(

#1307648
b1100 )
b1 ,

#1307884
b1000 6

#1307886
b1010 6

#1308442
b1110 6

#1308537
0+
1/
12
03

#1308681
b1111 6

#1309537
b1001 #

#1310000
0!
0$
0%

#1310745
b1101 6

#1310786
b1101 #

#1312304
b1100 #

#1315000
1!
1$
1%

#1317458
b11 ,
1.
11
02

#1317648
b10 ,

#1318537
1+
0.
0/
01
12
13

#1320000
0!
0$
0%

#1325000
1!
1$
1%

#1327648
b11 ,

#1328537
0+
1.
1/
11
02
03

#1330000
0!
0$
0%

#1335000
1!
1$
1%

#1337458
b101 ,
0-
0.
00
11
12

#1337648
b100 ,

#1338537
1+
0/
02
13

#1340000
0!
0$
0%

#1345000
1!
1$
1%

#1347648
b101 ,

#1348537
0+
1/
12
03

#1350000
0!
0$
0%

#1355000
1!
1$
1%

#1357458
b111 ,
1-
1.
10
01
02

#1357648
b110 ,

#1358537
1+
0-
0.
0/
00
11
12
13

#1360000
0!
0$
0%

#1365000
1!
1$
1%

#1367648
b111 ,

#1368537
0+
1-
1.
1/
10
01
02
03

#1370000
0!
0$
0%

#1375000
1!
1$
1%

#1377458
b1 ,
0-
0.
00
01
12

#1377503
b1001 ,
10

#1377648
b1000 ,

#1378537
1+
0/
02
13

#1380000
0!
0$
0%

#1385000
1!
1$
1%

#1387648
b1001 ,

#1388460
1*

#1388537
0+
1/
12
03

#1388677
14

#1390000
0!
0$
0%

#1395000
1!
1$
1%

#1397503
b1 ,
00

#1397600
1(

#1397648
b0 ,

#1398060
0*

#1398537
1+
0/
02
13

#1398677
04

#1400000
0!
0$
0%

#1405000
1!
1$
1%

#1407600
0(

#1407648
b1101 )
b1 ,

#1408537
0+
1/
12
03

#1408681
b1100 6

#1410000
0!
0$
0%

#1410745
b1110 6

#1412304
b1101 #

#1415000
1!
1$
1%

#1417458
b11 ,
1.
11
02

#1417648
b10 ,

#1418537
1+
0.
0/
01
12
13

#1420000
0!
0$
0%

#1425000
1!
1$
1%

#1427648
b11 ,

#1428537
0+
1.
1/
11
02
03

#1430000
0!
0$
0%

#1435000
1!
1$
1%

#1437458
b101 ,
0-
0.
00
11
12

#1437648
b100 ,

#1438537
1+
0/
02
13

#1440000
0!
0$
0%

#1445000
1!
1$
1%

#1447648
b101 ,

#1448537
0+
1/
12
03

#1450000
0!
0$
0%

#1455000
1!
1$
1%

#1457458
b111 ,
1-
1.
10
01
02

#1457648
b110 ,

#1458537
1+
0-
0.
0/
00
11
12
13

#1460000
0!
0$
0%

#1465000
1!
1$
1%

#1467648
b111 ,

#1468537
0+
1-
1.
1/
10
01
02
03

#1470000
0!
0$
0%

#1475000
1!
1$
1%

#1477458
b1 ,
0-
0.
00
01
12

#1477503
b1001 ,
10

#1477648
b1000 ,

#1478537
1+
0/
02
13

#1480000
0!
0$
0%

#1485000
1!
1$
1%

#1487648
b1001 ,

#1488460
1*

#1488537
0+
1/
12
03

#1488677
14

#1490000
0!
0$
0%

#1495000
1!
1$
1%

#1497503
b1 ,
00

#1497600
1(

#1497648
b0 ,

#1498060
0*

#1498537
1+
0/
02
13

#1498677
04

#1500000
0!
0$
0%

#1505000
1!
1$
1%

#1507458
b1111 )

#1507600
0(

#1507648
b1110 )
b1 ,

#1507886
b1100 6

#1508537
0+
1/
12
03

#1508681
b1101 6

#1509537
b1111 #

#1510000
0!
0$
0%

#1510745
b1111 6

#1512304
b1110 #

#1515000
1!
1$
1%

#1517458
b11 ,
1.
11
02

#1517648
b10 ,

#1518537
1+
0.
0/
01
12
13

#1520000
0!
0$
0%

#1525000
1!
1$
1%

#1527648
b11 ,

#1528537
0+
1.
1/
11
02
03

#1530000
0!
0$
0%

#1535000
1!
1$
1%

#1537458
b101 ,
0-
0.
00
11
12

#1537648
b100 ,

#1538537
1+
0/
02
13

#1540000
0!
0$
0%

#1545000
1!
1$
1%

#1547648
b101 ,

#1548537
0+
1/
12
03

#1550000
0!
0$
0%

#1555000
1!
1$
1%

#1557458
b111 ,
1-
1.
10
01
02

#1557648
b110 ,

#1558537
1+
0-
0.
0/
00
11
12
13

#1560000
0!
0$
0%

#1565000
1!
1$
1%

#1567648
b111 ,

#1568537
0+
1-
1.
1/
10
01
02
03

#1570000
0!
0$
0%

#1575000
1!
1$
1%

#1577458
b1 ,
0-
0.
00
01
12

#1577503
b1001 ,
10

#1577648
b1000 ,

#1578537
1+
0/
02
13

#1580000
0!
0$
0%

#1585000
1!
1$
1%

#1587648
b1001 ,

#1588460
1*

#1588537
0+
1/
12
03

#1588677
14

#1590000
0!
0$
0%

#1595000
1!
1$
1%

#1597503
b1 ,
00

#1597600
1(

#1597648
b0 ,

#1598060
0*

#1598537
1+
0/
02
13

#1598677
04

#1600000
0!
0$
0%

#1605000
1!
1$
1%

#1607600
0(

#1607648
b1111 )
b1 ,

#1608060
b111 6

#1608442
b11 6

#1608537
0+
1/
12
03

#1608681
b10 6

#1610000
0!
0$
0%

#1610745
b0 6

#1612304
b1111 #

#1615000
1!
1$
1%

#1617458
b11 ,
1.
11
02

#1617648
b10 ,

#1618537
1+
0.
0/
01
12
13

#1620000
0!
0$
0%

#1625000
1!
1$
1%

#1627648
b11 ,

#1628537
0+
1.
1/
11
02
03

#1630000
0!
0$
0%

#1635000
1!
1$
1%

#1637458
b101 ,
0-
0.
00
11
12

#1637648
b100 ,

#1638537
1+
0/
02
13

#1640000
0!
0$
0%

#1645000
1!
1$
1%

#1647648
b101 ,

#1648537
0+
1/
12
03

#1650000
0!
0$
0%

#1655000
1!
1$
1%

#1657458
b111 ,
1-
1.
10
01
02

#1657648
b110 ,

#1658537
1+
0-
0.
0/
00
11
12
13

#1660000
0!
0$
0%

#1665000
1!
1$
1%

#1667648
b111 ,

#1668537
0+
1-
1.
1/
10
01
02
03

#1670000
0!
0$
0%

#1675000
1!
1$
1%

#1677458
b1 ,
0-
0.
00
01
12

#1677503
b1001 ,
10

#1677648
b1000 ,

#1678537
1+
0/
02
13

#1680000
0!
0$
0%

#1685000
1!
1$
1%

#1687648
b1001 ,

#1688460
1*

#1688537
0+
1/
12
03

#1688677
14

#1690000
0!
0$
0%

#1695000
1!
1$
1%

#1697503
b1 ,
00

#1697600
1(

#1697648
b0 ,

#1698060
0*

#1698537
1+
0/
02
13

#1698677
04

#1700000
0!
0$
0%

#1705000
1!
1$
1%

#1707458
b1001 )

#1707503
b1 )

#1707600
0(

#1707648
b0 )
b1 ,

#1707884
b100 6

#1707886
b110 6

#1708060
b1110 6

#1708442
b1010 6

#1708537
0+
1/
12
03

#1708596
b10 6

#1708681
b11 6

#1709537
b1101 #

#1710000
0!
0$
0%

#1710745
b1 6

#1710786
b1001 #

#1710846
b1 #

#1712304
b0 #

#1715000
1!
1$
1%

#1717458
b11 ,
1.
11
02

#1717648
b10 ,

#1718537
1+
0.
0/
01
12
13

#1720000
0!
0$
0%

#1725000
1!
1$
1%

#1727648
b11 ,

#1728537
0+
1.
1/
11
02
03

#1730000
0!
0$
0%

#1735000
1!
1$
1%

#1737458
b101 ,
0-
0.
00
11
12

#1737648
b100 ,

#1738537
1+
0/
02
13

#1740000
0!
0$
0%

#1745000
1!
1$
1%

#1747648
b101 ,

#1748537
0+
1/
12
03

#1750000
0!
0$
0%

#1755000
1!
1$
1%

#1757458
b111 ,
1-
1.
10
01
02

#1757648
b110 ,

#1758537
1+
0-
0.
0/
00
11
12
13

#1760000
0!
0$
0%

#1765000
1!
1$
1%

#1767648
b111 ,

#1768537
0+
1-
1.
1/
10
01
02
03

#1770000
0!
0$
0%

#1775000
1!
1$
1%

#1777458
b1 ,
0-
0.
00
01
12

#1777503
b1001 ,
10

#1777648
b1000 ,

#1778537
1+
0/
02
13

#1780000
0!
0$
0%

#1785000
1!
1$
1%

#1787648
b1001 ,

#1788460
1*

#1788537
0+
1/
12
03

#1788677
14

#1790000
0!
0$
0%

#1795000
1!
1$
1%

#1797503
b1 ,
00

#1797600
1(

#1797648
b0 ,

#1798060
0*

#1798537
1+
0/
02
13

#1798677
04

#1800000
0!
0$
0%

#1805000
1!
1$
1%

#1807600
0(

#1807648
b1 )
b1 ,

#1808537
0+
1/
12
03

#1808681
b0 6

#1810000
0!
0$
0%

#1810745
b10 6

#1812304
b1 #

#1815000
1!
1$
1%

#1817458
b11 ,
1.
11
02

#1817648
b10 ,

#1818537
1+
0.
0/
01
12
13

#1820000
0!
0$
0%

#1825000
1!
1$
1%

#1827648
b11 ,

#1828537
0+
1.
1/
11
02
03

#1830000
0!
0$
0%

#1835000
1!
1$
1%

#1837458
b101 ,
0-
0.
00
11
12

#1837648
b100 ,

#1838537
1+
0/
02
13

#1840000
0!
0$
0%

#1845000
1!
1$
1%

#1847648
b101 ,

#1848537
0+
1/
12
03

#1850000
0!
0$
0%

#1855000
1!
1$
1%

#1857458
b111 ,
1-
1.
10
01
02

#1857648
b110 ,

#1858537
1+
0-
0.
0/
00
11
12
13

#1860000
0!
0$
0%

#1865000
1!
1$
1%

#1867648
b111 ,

#1868537
0+
1-
1.
1/
10
01
02
03

#1870000
0!
0$
0%

#1875000
1!
1$
1%

#1877458
b1 ,
0-
0.
00
01
12

#1877503
b1001 ,
10

#1877648
b1000 ,

#1878537
1+
0/
02
13

